%!PS-Adobe-3.0 EPSF-3.0
%%Creator: (MATLAB, The Mathworks, Inc. Version 9.0.0.370719 \(R2016a\). Operating System: Windows 7)
%%Title: ./efun_setKnown_1000maxiter.eps
%%CreationDate: 2018-08-15T14:00:06
%%Pages: (atend)
%%BoundingBox:     7     0   381   297
%%LanguageLevel: 3
%%EndComments
%%BeginProlog
%%BeginResource: procset (Apache XML Graphics Std ProcSet) 1.2 0
%%Version: 1.2 0
%%Copyright: (Copyright 2001-2003,2010 The Apache Software Foundation. License terms: http://www.apache.org/licenses/LICENSE-2.0)
/bd{bind def}bind def
/ld{load def}bd
/GR/grestore ld
/M/moveto ld
/LJ/setlinejoin ld
/C/curveto ld
/f/fill ld
/LW/setlinewidth ld
/GC/setgray ld
/t/show ld
/N/newpath ld
/CT/concat ld
/cp/closepath ld
/S/stroke ld
/L/lineto ld
/CC/setcmykcolor ld
/A/ashow ld
/GS/gsave ld
/RC/setrgbcolor ld
/RM/rmoveto ld
/ML/setmiterlimit ld
/re {4 2 roll M
1 index 0 rlineto
0 exch rlineto
neg 0 rlineto
cp } bd
/_ctm matrix def
/_tm matrix def
/BT { _ctm currentmatrix pop matrix _tm copy pop 0 0 moveto } bd
/ET { _ctm setmatrix } bd
/iTm { _ctm setmatrix _tm concat } bd
/Tm { _tm astore pop iTm 0 0 moveto } bd
/ux 0.0 def
/uy 0.0 def
/F {
  /Tp exch def
  /Tf exch def
  Tf findfont Tp scalefont setfont
  /cf Tf def  /cs Tp def
} bd
/ULS {currentpoint /uy exch def /ux exch def} bd
/ULE {
  /Tcx currentpoint pop def
  gsave
  newpath
  cf findfont cs scalefont dup
  /FontMatrix get 0 get /Ts exch def /FontInfo get dup
  /UnderlinePosition get Ts mul /To exch def
  /UnderlineThickness get Ts mul /Tt exch def
  ux uy To add moveto  Tcx uy To add lineto
  Tt setlinewidth stroke
  grestore
} bd
/OLE {
  /Tcx currentpoint pop def
  gsave
  newpath
  cf findfont cs scalefont dup
  /FontMatrix get 0 get /Ts exch def /FontInfo get dup
  /UnderlinePosition get Ts mul /To exch def
  /UnderlineThickness get Ts mul /Tt exch def
  ux uy To add cs add moveto Tcx uy To add cs add lineto
  Tt setlinewidth stroke
  grestore
} bd
/SOE {
  /Tcx currentpoint pop def
  gsave
  newpath
  cf findfont cs scalefont dup
  /FontMatrix get 0 get /Ts exch def /FontInfo get dup
  /UnderlinePosition get Ts mul /To exch def
  /UnderlineThickness get Ts mul /Tt exch def
  ux uy To add cs 10 mul 26 idiv add moveto Tcx uy To add cs 10 mul 26 idiv add lineto
  Tt setlinewidth stroke
  grestore
} bd
/QT {
/Y22 exch store
/X22 exch store
/Y21 exch store
/X21 exch store
currentpoint
/Y21 load 2 mul add 3 div exch
/X21 load 2 mul add 3 div exch
/X21 load 2 mul /X22 load add 3 div
/Y21 load 2 mul /Y22 load add 3 div
/X22 load /Y22 load curveto
} bd
/SSPD {
dup length /d exch dict def
{
/v exch def
/k exch def
currentpagedevice k known {
/cpdv currentpagedevice k get def
v cpdv ne {
/upd false def
/nullv v type /nulltype eq def
/nullcpdv cpdv type /nulltype eq def
nullv nullcpdv or
{
/upd true def
} {
/sametype v type cpdv type eq def
sametype {
v type /arraytype eq {
/vlen v length def
/cpdvlen cpdv length def
vlen cpdvlen eq {
0 1 vlen 1 sub {
/i exch def
/obj v i get def
/cpdobj cpdv i get def
obj cpdobj ne {
/upd true def
exit
} if
} for
} {
/upd true def
} ifelse
} {
v type /dicttype eq {
v {
/dv exch def
/dk exch def
/cpddv cpdv dk get def
dv cpddv ne {
/upd true def
exit
} if
} forall
} {
/upd true def
} ifelse
} ifelse
} if
} ifelse
upd true eq {
d k v put
} if
} if
} if
} forall
d length 0 gt {
d setpagedevice
} if
} bd
%%EndResource
%%BeginResource: procset (Apache XML Graphics EPS ProcSet) 1.0 0
%%Version: 1.0 0
%%Copyright: (Copyright 2002-2003 The Apache Software Foundation. License terms: http://www.apache.org/licenses/LICENSE-2.0)
/BeginEPSF { %def
/b4_Inc_state save def         % Save state for cleanup
/dict_count countdictstack def % Count objects on dict stack
/op_count count 1 sub def      % Count objects on operand stack
userdict begin                 % Push userdict on dict stack
/showpage { } def              % Redefine showpage, { } = null proc
0 setgray 0 setlinecap         % Prepare graphics state
1 setlinewidth 0 setlinejoin
10 setmiterlimit [ ] 0 setdash newpath
/languagelevel where           % If level not equal to 1 then
{pop languagelevel             % set strokeadjust and
1 ne                           % overprint to their defaults.
{false setstrokeadjust false setoverprint
} if
} if
} bd
/EndEPSF { %def
count op_count sub {pop} repeat            % Clean up stacks
countdictstack dict_count sub {end} repeat
b4_Inc_state restore
} bd
%%EndResource
%FOPBeginFontDict
%%IncludeResource: font Courier-Bold
%%IncludeResource: font Helvetica
%%IncludeResource: font Courier-BoldOblique
%%IncludeResource: font Courier-Oblique
%%IncludeResource: font Times-Roman
%%IncludeResource: font Helvetica-BoldOblique
%%IncludeResource: font Helvetica-Bold
%%IncludeResource: font Helvetica-Oblique
%%IncludeResource: font Times-BoldItalic
%%IncludeResource: font Courier
%%IncludeResource: font Times-Italic
%%IncludeResource: font Times-Bold
%%IncludeResource: font Symbol
%%IncludeResource: font ZapfDingbats
%FOPEndFontDict
%%BeginResource: encoding WinAnsiEncoding
/WinAnsiEncoding [
/.notdef /.notdef /.notdef /.notdef /.notdef
/.notdef /.notdef /.notdef /.notdef /.notdef
/.notdef /.notdef /.notdef /.notdef /.notdef
/.notdef /.notdef /.notdef /.notdef /.notdef
/.notdef /.notdef /.notdef /.notdef /.notdef
/.notdef /.notdef /.notdef /.notdef /.notdef
/.notdef /.notdef /space /exclam /quotedbl
/numbersign /dollar /percent /ampersand /quotesingle
/parenleft /parenright /asterisk /plus /comma
/hyphen /period /slash /zero /one
/two /three /four /five /six
/seven /eight /nine /colon /semicolon
/less /equal /greater /question /at
/A /B /C /D /E
/F /G /H /I /J
/K /L /M /N /O
/P /Q /R /S /T
/U /V /W /X /Y
/Z /bracketleft /backslash /bracketright /asciicircum
/underscore /quoteleft /a /b /c
/d /e /f /g /h
/i /j /k /l /m
/n /o /p /q /r
/s /t /u /v /w
/x /y /z /braceleft /bar
/braceright /asciitilde /bullet /Euro /bullet
/quotesinglbase /florin /quotedblbase /ellipsis /dagger
/daggerdbl /circumflex /perthousand /Scaron /guilsinglleft
/OE /bullet /Zcaron /bullet /bullet
/quoteleft /quoteright /quotedblleft /quotedblright /bullet
/endash /emdash /asciitilde /trademark /scaron
/guilsinglright /oe /bullet /zcaron /Ydieresis
/space /exclamdown /cent /sterling /currency
/yen /brokenbar /section /dieresis /copyright
/ordfeminine /guillemotleft /logicalnot /sfthyphen /registered
/macron /degree /plusminus /twosuperior /threesuperior
/acute /mu /paragraph /middot /cedilla
/onesuperior /ordmasculine /guillemotright /onequarter /onehalf
/threequarters /questiondown /Agrave /Aacute /Acircumflex
/Atilde /Adieresis /Aring /AE /Ccedilla
/Egrave /Eacute /Ecircumflex /Edieresis /Igrave
/Iacute /Icircumflex /Idieresis /Eth /Ntilde
/Ograve /Oacute /Ocircumflex /Otilde /Odieresis
/multiply /Oslash /Ugrave /Uacute /Ucircumflex
/Udieresis /Yacute /Thorn /germandbls /agrave
/aacute /acircumflex /atilde /adieresis /aring
/ae /ccedilla /egrave /eacute /ecircumflex
/edieresis /igrave /iacute /icircumflex /idieresis
/eth /ntilde /ograve /oacute /ocircumflex
/otilde /odieresis /divide /oslash /ugrave
/uacute /ucircumflex /udieresis /yacute /thorn
/ydieresis
] def
%%EndResource
%FOPBeginFontReencode
/Courier-Bold findfont
dup length dict begin
  {1 index /FID ne {def} {pop pop} ifelse} forall
  /Encoding WinAnsiEncoding def
  currentdict
end
/Courier-Bold exch definefont pop
/Helvetica findfont
dup length dict begin
  {1 index /FID ne {def} {pop pop} ifelse} forall
  /Encoding WinAnsiEncoding def
  currentdict
end
/Helvetica exch definefont pop
/Courier-BoldOblique findfont
dup length dict begin
  {1 index /FID ne {def} {pop pop} ifelse} forall
  /Encoding WinAnsiEncoding def
  currentdict
end
/Courier-BoldOblique exch definefont pop
/Courier-Oblique findfont
dup length dict begin
  {1 index /FID ne {def} {pop pop} ifelse} forall
  /Encoding WinAnsiEncoding def
  currentdict
end
/Courier-Oblique exch definefont pop
/Times-Roman findfont
dup length dict begin
  {1 index /FID ne {def} {pop pop} ifelse} forall
  /Encoding WinAnsiEncoding def
  currentdict
end
/Times-Roman exch definefont pop
/Helvetica-BoldOblique findfont
dup length dict begin
  {1 index /FID ne {def} {pop pop} ifelse} forall
  /Encoding WinAnsiEncoding def
  currentdict
end
/Helvetica-BoldOblique exch definefont pop
/Helvetica-Bold findfont
dup length dict begin
  {1 index /FID ne {def} {pop pop} ifelse} forall
  /Encoding WinAnsiEncoding def
  currentdict
end
/Helvetica-Bold exch definefont pop
/Helvetica-Oblique findfont
dup length dict begin
  {1 index /FID ne {def} {pop pop} ifelse} forall
  /Encoding WinAnsiEncoding def
  currentdict
end
/Helvetica-Oblique exch definefont pop
/Times-BoldItalic findfont
dup length dict begin
  {1 index /FID ne {def} {pop pop} ifelse} forall
  /Encoding WinAnsiEncoding def
  currentdict
end
/Times-BoldItalic exch definefont pop
/Courier findfont
dup length dict begin
  {1 index /FID ne {def} {pop pop} ifelse} forall
  /Encoding WinAnsiEncoding def
  currentdict
end
/Courier exch definefont pop
/Times-Italic findfont
dup length dict begin
  {1 index /FID ne {def} {pop pop} ifelse} forall
  /Encoding WinAnsiEncoding def
  currentdict
end
/Times-Italic exch definefont pop
/Times-Bold findfont
dup length dict begin
  {1 index /FID ne {def} {pop pop} ifelse} forall
  /Encoding WinAnsiEncoding def
  currentdict
end
/Times-Bold exch definefont pop
%FOPEndFontReencode
%%EndProlog
%%Page: 1 1
%%PageBoundingBox: 0 0 420 315
%%BeginPageSetup
[1 0 0 -1 0 315] CT
%%EndPageSetup
GS
[0.75 0 0 0.75 0 0] CT
1 GC
N
0 0 560 420 re
f
GR
GS
[0.75 0 0 0.75 0 0] CT
1 GC
N
0 0 560 420 re
f
GR
GS
[0.75 0 0 0.75 0 0] CT
1 GC
N
73 360 M
507 360 L
507 31 L
73 31 L
cp
f
GR
GS
[0.75 0 0 0.75 0 0] CT
0.149 GC
2 setlinecap
1 LJ
0.667 LW
N
73 360 M
507 360 L
S
GR
GS
[0.75 0 0 0.75 0 0] CT
0.149 GC
2 setlinecap
1 LJ
0.667 LW
N
73 31 M
507 31 L
S
GR
GS
[0.75 0 0 0.75 0 0] CT
0.149 GC
2 setlinecap
1 LJ
0.667 LW
N
157.907 360 M
157.907 355.66 L
S
GR
GS
[0.75 0 0 0.75 0 0] CT
0.149 GC
2 setlinecap
1 LJ
0.667 LW
N
252.248 360 M
252.248 355.66 L
S
GR
GS
[0.75 0 0 0.75 0 0] CT
0.149 GC
2 setlinecap
1 LJ
0.667 LW
N
346.59 360 M
346.59 355.66 L
S
GR
GS
[0.75 0 0 0.75 0 0] CT
0.149 GC
2 setlinecap
1 LJ
0.667 LW
N
440.931 360 M
440.931 355.66 L
S
GR
GS
[0.75 0 0 0.75 0 0] CT
0.149 GC
2 setlinecap
1 LJ
0.667 LW
N
157.907 31 M
157.907 35.34 L
S
GR
GS
[0.75 0 0 0.75 0 0] CT
0.149 GC
2 setlinecap
1 LJ
0.667 LW
N
252.248 31 M
252.248 35.34 L
S
GR
GS
[0.75 0 0 0.75 0 0] CT
0.149 GC
2 setlinecap
1 LJ
0.667 LW
N
346.59 31 M
346.59 35.34 L
S
GR
GS
[0.75 0 0 0.75 0 0] CT
0.149 GC
2 setlinecap
1 LJ
0.667 LW
N
440.931 31 M
440.931 35.34 L
S
GR
GS
[0.75 0 0 0.75 118.43035 274.8] CT
0.149 GC
/Helvetica 18.667 F
GS
[1 0 0 1 0 0] CT
-5.5 20 moveto 
1 -1 scale
(1) t 
GR
GR
GS
[0.75 0 0 0.75 189.18629 274.8] CT
0.149 GC
/Helvetica 18.667 F
GS
[1 0 0 1 0 0] CT
-5.5 20 moveto 
1 -1 scale
(2) t 
GR
GR
GS
[0.75 0 0 0.75 259.94222 274.8] CT
0.149 GC
/Helvetica 18.667 F
GS
[1 0 0 1 0 0] CT
-5.5 20 moveto 
1 -1 scale
(3) t 
GR
GR
GS
[0.75 0 0 0.75 330.69818 274.8] CT
0.149 GC
/Helvetica 18.667 F
GS
[1 0 0 1 0 0] CT
-5.5 20 moveto 
1 -1 scale
(4) t 
GR
GR
GS
[0.75 0 0 0.75 217.50014 294.75] CT
0.149 GC
/Helvetica 20.533 F
GS
[1 0 0 1 0 0] CT
-166 22 moveto 
1 -1 scale
(log2 - Ratio of Function Evaluations) t 
GR
GR
GS
[0.75 0 0 0.75 0 0] CT
0.149 GC
2 setlinecap
1 LJ
0.667 LW
N
73 360 M
73 31 L
S
GR
GS
[0.75 0 0 0.75 0 0] CT
0.149 GC
2 setlinecap
1 LJ
0.667 LW
N
507 360 M
507 31 L
S
GR
GS
[0.75 0 0 0.75 0 0] CT
0.149 GC
2 setlinecap
1 LJ
0.667 LW
N
73 360 M
77.34 360 L
S
GR
GS
[0.75 0 0 0.75 0 0] CT
0.149 GC
2 setlinecap
1 LJ
0.667 LW
N
73 294.2 M
77.34 294.2 L
S
GR
GS
[0.75 0 0 0.75 0 0] CT
0.149 GC
2 setlinecap
1 LJ
0.667 LW
N
73 228.4 M
77.34 228.4 L
S
GR
GS
[0.75 0 0 0.75 0 0] CT
0.149 GC
2 setlinecap
1 LJ
0.667 LW
N
73 162.6 M
77.34 162.6 L
S
GR
GS
[0.75 0 0 0.75 0 0] CT
0.149 GC
2 setlinecap
1 LJ
0.667 LW
N
73 96.8 M
77.34 96.8 L
S
GR
GS
[0.75 0 0 0.75 0 0] CT
0.149 GC
2 setlinecap
1 LJ
0.667 LW
N
73 31 M
77.34 31 L
S
GR
GS
[0.75 0 0 0.75 0 0] CT
0.149 GC
2 setlinecap
1 LJ
0.667 LW
N
507 360 M
502.66 360 L
S
GR
GS
[0.75 0 0 0.75 0 0] CT
0.149 GC
2 setlinecap
1 LJ
0.667 LW
N
507 294.2 M
502.66 294.2 L
S
GR
GS
[0.75 0 0 0.75 0 0] CT
0.149 GC
2 setlinecap
1 LJ
0.667 LW
N
507 228.4 M
502.66 228.4 L
S
GR
GS
[0.75 0 0 0.75 0 0] CT
0.149 GC
2 setlinecap
1 LJ
0.667 LW
N
507 162.6 M
502.66 162.6 L
S
GR
GS
[0.75 0 0 0.75 0 0] CT
0.149 GC
2 setlinecap
1 LJ
0.667 LW
N
507 96.8 M
502.66 96.8 L
S
GR
GS
[0.75 0 0 0.75 0 0] CT
0.149 GC
2 setlinecap
1 LJ
0.667 LW
N
507 31 M
502.66 31 L
S
GR
GS
[0.75 0 0 0.75 49.95 270] CT
0.149 GC
/Helvetica 18.667 F
GS
[1 0 0 1 0 0] CT
-11 7.5 moveto 
1 -1 scale
(0) t 
GR
GR
GS
[0.75 0 0 0.75 49.95 220.65001] CT
0.149 GC
/Helvetica 18.667 F
GS
[1 0 0 1 0 0] CT
-22 7.5 moveto 
1 -1 scale
(20) t 
GR
GR
GS
[0.75 0 0 0.75 49.95 171.3] CT
0.149 GC
/Helvetica 18.667 F
GS
[1 0 0 1 0 0] CT
-22 7.5 moveto 
1 -1 scale
(40) t 
GR
GR
GS
[0.75 0 0 0.75 49.95 121.95] CT
0.149 GC
/Helvetica 18.667 F
GS
[1 0 0 1 0 0] CT
-22 7.5 moveto 
1 -1 scale
(60) t 
GR
GR
GS
[0.75 0 0 0.75 49.95 72.6] CT
0.149 GC
/Helvetica 18.667 F
GS
[1 0 0 1 0 0] CT
-22 7.5 moveto 
1 -1 scale
(80) t 
GR
GR
GS
[0.75 0 0 0.75 49.95 23.25] CT
0.149 GC
/Helvetica 18.667 F
GS
[1 0 0 1 0 0] CT
-32 7.5 moveto 
1 -1 scale
(100) t 
GR
GR
GS
[0 -0.75 0.75 0 22.95 146.62489] CT
0.149 GC
/Helvetica 20.533 F
GS
[1 0 0 1 0 0] CT
-57 -5 moveto 
1 -1 scale
(% Problems) t 
GR
GR
GS
[0.75 0 0 0.75 0 0] CT
0 0 1 RC
1 LJ
0.667 LW
N
72.957 74.453 M
78.704 74.453 L
78.704 68.245 L
79.597 68.245 L
79.597 62.038 L
83.519 62.038 L
83.519 55.83 L
88.961 55.83 L
88.961 49.623 L
114.564 49.623 L
114.564 43.415 L
145.109 43.415 L
145.109 37.208 L
507.043 37.208 L
S
GR
GS
[0.75 0 0 0.75 0 0] CT
1 0 0 RC
1 LJ
0.667 LW
N
72.957 335.17 M
73.652 335.17 L
73.652 328.962 L
77.326 328.962 L
77.326 322.755 L
78.352 322.755 L
78.352 316.547 L
88.381 316.547 L
88.381 310.34 L
88.381 310.34 L
88.381 304.132 L
90.878 304.132 L
90.878 297.925 L
105.416 297.925 L
105.416 291.717 L
106.909 291.717 L
106.909 285.509 L
113.063 285.509 L
113.063 279.302 L
118.752 279.302 L
118.752 273.094 L
118.752 273.094 L
118.752 266.887 L
123.702 266.887 L
123.702 260.679 L
125.084 260.679 L
125.084 254.472 L
127.536 254.472 L
127.536 248.264 L
137.555 248.264 L
137.555 242.057 L
141.876 242.057 L
141.876 235.849 L
142.647 235.849 L
142.647 229.642 L
147.013 229.642 L
147.013 223.434 L
150.926 223.434 L
150.926 217.226 L
170.879 217.226 L
170.879 211.019 L
173.938 211.019 L
173.938 204.811 L
175.863 204.811 L
175.863 198.604 L
182.722 198.604 L
182.722 192.396 L
188.278 192.396 L
188.278 186.189 L
197.062 186.189 L
197.062 179.981 L
197.062 179.981 L
197.062 173.774 L
197.062 173.774 L
197.062 167.566 L
199.011 167.566 L
199.011 161.358 L
203.703 161.358 L
203.703 155.151 L
221.877 155.151 L
221.877 148.943 L
237.11 148.943 L
237.11 142.736 L
240.537 142.736 L
240.537 136.528 L
252.248 136.528 L
252.248 130.321 L
257.198 130.321 L
257.198 124.113 L
268.279 124.113 L
268.279 117.906 L
279.561 117.906 L
279.561 111.698 L
280.122 111.698 L
280.122 105.491 L
301.642 105.491 L
301.642 99.283 L
335.654 99.283 L
335.654 93.075 L
355.838 93.075 L
355.838 86.868 L
507.043 86.868 L
S
GR
GS
[0.75 0 0 0.75 0 0] CT
0 1 0 RC
1 LJ
0.667 LW
N
72.957 304.132 M
88.381 304.132 L
88.381 297.925 L
88.381 297.925 L
88.381 291.717 L
90.402 291.717 L
90.402 285.509 L
102.721 285.509 L
102.721 279.302 L
102.721 279.302 L
102.721 273.094 L
102.721 273.094 L
102.721 266.887 L
102.721 266.887 L
102.721 260.679 L
105.416 260.679 L
105.416 254.472 L
105.78 254.472 L
105.78 248.264 L
106.909 248.264 L
106.909 242.057 L
106.909 242.057 L
106.909 235.849 L
109.362 235.849 L
109.362 229.642 L
110.972 229.642 L
110.972 223.434 L
118.752 223.434 L
118.752 217.226 L
118.752 217.226 L
118.752 211.019 L
118.752 211.019 L
118.752 204.811 L
119.756 204.811 L
119.756 198.604 L
123.702 198.604 L
123.702 192.396 L
125.347 192.396 L
125.347 186.189 L
127.536 186.189 L
127.536 179.981 L
141.288 179.981 L
141.288 173.774 L
147.013 173.774 L
147.013 167.566 L
150.926 167.566 L
150.926 161.358 L
150.926 161.358 L
150.926 155.151 L
154.461 155.151 L
154.461 148.943 L
156.787 148.943 L
156.787 142.736 L
157.907 142.736 L
157.907 136.528 L
166.329 136.528 L
166.329 130.321 L
169.75 130.321 L
169.75 124.113 L
178.888 124.113 L
178.888 117.906 L
181.297 117.906 L
181.297 111.698 L
185.22 111.698 L
185.22 105.491 L
198.753 105.491 L
198.753 99.283 L
201.25 99.283 L
201.25 93.075 L
236.989 93.075 L
236.989 86.868 L
252.248 86.868 L
252.248 80.66 L
268.279 80.66 L
268.279 74.453 L
466.688 74.453 L
466.688 68.245 L
507.043 68.245 L
S
GR
GS
[0.75 0 0 0.75 0 0] CT
1 LJ
0.667 LW
N
72.957 310.34 M
75.409 310.34 L
75.409 304.132 L
77.906 304.132 L
77.906 297.925 L
79.597 297.925 L
79.597 291.717 L
79.918 291.717 L
79.918 285.509 L
84.547 285.509 L
84.547 279.302 L
88.381 279.302 L
88.381 273.094 L
91.827 273.094 L
91.827 266.887 L
92.844 266.887 L
92.844 260.679 L
93.134 260.679 L
93.134 254.472 L
93.331 254.472 L
93.331 248.264 L
93.937 248.264 L
93.937 242.057 L
99.275 242.057 L
99.275 235.849 L
101.543 235.849 L
101.543 229.642 L
104.412 229.642 L
104.412 223.434 L
118.752 223.434 L
118.752 217.226 L
118.752 217.226 L
118.752 211.019 L
123.702 211.019 L
123.702 204.811 L
129.646 204.811 L
129.646 198.604 L
141.876 198.604 L
141.876 192.396 L
143.567 192.396 L
143.567 186.189 L
145.007 186.189 L
145.007 179.981 L
149.819 179.981 L
149.819 173.774 L
152.212 173.774 L
152.212 167.566 L
164.714 167.566 L
164.714 161.358 L
173.938 161.358 L
173.938 155.151 L
173.938 155.151 L
173.938 148.943 L
178.888 148.943 L
178.888 142.736 L
182.722 142.736 L
182.722 136.528 L
197.062 136.528 L
197.062 130.321 L
197.062 130.321 L
197.062 124.113 L
201.25 124.113 L
201.25 117.906 L
208.232 117.906 L
208.232 111.698 L
208.905 111.698 L
208.905 105.491 L
220.452 105.491 L
220.452 99.283 L
247.112 99.283 L
247.112 93.075 L
258.299 93.075 L
258.299 86.868 L
268.279 86.868 L
268.279 80.66 L
279.561 80.66 L
279.561 74.453 L
288.112 74.453 L
288.112 68.245 L
301.642 68.245 L
301.642 62.038 L
362.621 62.038 L
362.621 55.83 L
507.043 55.83 L
S
GR
GS
[0.75 0 0 0.75 0 0] CT
0 1 1 RC
1 LJ
0.667 LW
N
72.957 266.887 M
79.597 266.887 L
79.597 260.679 L
81.74 260.679 L
81.74 254.472 L
92.844 254.472 L
92.844 248.264 L
93.937 248.264 L
93.937 242.057 L
96.389 242.057 L
96.389 235.849 L
100.078 235.849 L
100.078 229.642 L
102.721 229.642 L
102.721 223.434 L
104.412 223.434 L
104.412 217.226 L
104.412 217.226 L
104.412 211.019 L
105.78 211.019 L
105.78 204.811 L
109.362 204.811 L
109.362 198.604 L
109.362 198.604 L
109.362 192.396 L
123.702 192.396 L
123.702 186.189 L
124.308 186.189 L
124.308 179.981 L
129.646 179.981 L
129.646 173.774 L
137.555 173.774 L
137.555 167.566 L
148.93 167.566 L
148.93 161.358 L
149.819 161.358 L
149.819 155.151 L
150.128 155.151 L
150.128 148.943 L
150.926 148.943 L
150.926 142.736 L
178.888 142.736 L
178.888 136.528 L
178.888 136.528 L
178.888 130.321 L
181.297 130.321 L
181.297 124.113 L
182.2 124.113 L
182.2 117.906 L
185.22 117.906 L
185.22 111.698 L
193.616 111.698 L
193.616 105.491 L
201.453 105.491 L
201.453 99.283 L
219.9 99.283 L
219.9 93.075 L
233.484 93.075 L
233.484 86.868 L
268.279 86.868 L
268.279 80.66 L
507.043 80.66 L
S
GR
GS
[0.75 0 0 0.75 0 0] CT
1 0 1 RC
1 LJ
0.667 LW
N
72.957 341.377 M
74.041 341.377 L
74.041 335.17 L
79.597 335.17 L
79.597 328.962 L
90.878 328.962 L
90.878 322.755 L
109.362 322.755 L
109.362 316.547 L
118.752 316.547 L
118.752 310.34 L
128.838 310.34 L
128.838 304.132 L
129.646 304.132 L
129.646 297.925 L
142.598 297.925 L
142.598 291.717 L
151.576 291.717 L
151.576 285.509 L
165.266 285.509 L
165.266 279.302 L
167.75 279.302 L
167.75 273.094 L
170.879 273.094 L
170.879 266.887 L
182.091 266.887 L
182.091 260.679 L
182.722 260.679 L
182.722 254.472 L
188.278 254.472 L
188.278 248.264 L
194.775 248.264 L
194.775 242.057 L
199.471 242.057 L
199.471 235.849 L
204.076 235.849 L
204.076 229.642 L
208.479 229.642 L
208.479 223.434 L
208.479 223.434 L
208.479 217.226 L
209.259 217.226 L
209.259 211.019 L
222.869 211.019 L
222.869 204.811 L
234.074 204.811 L
234.074 198.604 L
241.055 198.604 L
241.055 192.396 L
243.464 192.396 L
243.464 186.189 L
255.609 186.189 L
255.609 179.981 L
255.694 179.981 L
255.694 173.774 L
256.437 173.774 L
256.437 167.566 L
264.091 167.566 L
264.091 161.358 L
267.534 161.358 L
267.534 155.151 L
268.279 155.151 L
268.279 148.943 L
282.619 148.943 L
282.619 142.736 L
285.315 142.736 L
285.315 136.528 L
299.655 136.528 L
299.655 130.321 L
299.655 130.321 L
299.655 124.113 L
315.686 124.113 L
315.686 117.906 L
323.006 117.906 L
323.006 111.698 L
356.828 111.698 L
356.828 105.491 L
360.152 105.491 L
360.152 99.283 L
380.48 99.283 L
380.48 93.075 L
413.284 93.075 L
413.284 86.868 L
507.043 86.868 L
S
GR
GS
[0.75 0 0 0.75 0 0] CT
1 GC
N
370 347 M
370 196 L
494 196 L
494 347 L
cp
f
GR
GS
[0.75 0 0 0.75 305.25 156.7824] CT
/Helvetica 16.8 F
GS
[1 0 0 1 0 0] CT
0 7 moveto 
1 -1 scale
(Hes) t 
GR
GR
GS
[0.75 0 0 0.75 0 0] CT
0 0 1 RC
1 LJ
0.667 LW
N
374 209.043 M
404 209.043 L
S
GR
GS
[0.75 0 0 0.75 305.25 181.5] CT
/Helvetica 16 F
GS
[1 0 0 1 0 0] CT
0 0 moveto 
1 -1 scale
(SBFGS) t 
GR
GR
GS
[0.75 0 0 0.75 346.5 175.5] CT
/Helvetica 12 F
GS
[1 0 0 1 0 0] CT
0 0 moveto 
1 -1 scale
(M) t 
GR
GR
GS
[0.75 0 0 0.75 0 0] CT
1 0 0 RC
1 LJ
0.667 LW
N
374 233.123 M
404 233.123 L
S
GR
GS
[0.75 0 0 0.75 305.25 201] CT
/Helvetica 16 F
GS
[1 0 0 1 0 0] CT
0 0 moveto 
1 -1 scale
(SubBFGS) t 
GR
GR
GS
[0.75 0 0 0.75 360 195] CT
/Helvetica 12 F
GS
[1 0 0 1 0 0] CT
0 0 moveto 
1 -1 scale
(M) t 
GR
GR
GS
[0.75 0 0 0.75 0 0] CT
0 1 0 RC
1 LJ
0.667 LW
N
374 258.708 M
404 258.708 L
S
GR
GS
[0.75 0 0 0.75 305.25 219.75] CT
/Helvetica 16 F
GS
[1 0 0 1 0 0] CT
0 0 moveto 
1 -1 scale
(SBFGS) t 
GR
GR
GS
[0.75 0 0 0.75 346.5 213.75] CT
/Helvetica 12 F
GS
[1 0 0 1 0 0] CT
0 0 moveto 
1 -1 scale
(P) t 
GR
GR
GS
[0.75 0 0 0.75 0 0] CT
1 LJ
0.667 LW
N
374 284.292 M
404 284.292 L
S
GR
GS
[0.75 0 0 0.75 305.25 239.25] CT
/Helvetica 16 F
GS
[1 0 0 1 0 0] CT
0 0 moveto 
1 -1 scale
(SubBFGS) t 
GR
GR
GS
[0.75 0 0 0.75 360 233.25] CT
/Helvetica 12 F
GS
[1 0 0 1 0 0] CT
0 0 moveto 
1 -1 scale
(P) t 
GR
GR
GS
[0.75 0 0 0.75 0 0] CT
0 1 1 RC
1 LJ
0.667 LW
N
374 309.877 M
404 309.877 L
S
GR
GS
[0.75 0 0 0.75 305.25 250.46761] CT
/Helvetica 16.8 F
GS
[1 0 0 1 0 0] CT
0 7 moveto 
1 -1 scale
(BFGS) t 
GR
GR
GS
[0.75 0 0 0.75 0 0] CT
1 0 1 RC
1 LJ
0.667 LW
N
374 333.957 M
404 333.957 L
S
GR
GS
[0.75 0 0 0.75 0 0] CT
0.149 GC
10.0 ML
0.667 LW
N
370 347 M
370 196 L
494 196 L
494 347 L
cp
S
GR
%%Trailer
%%Pages: 1
%%EOF
