name &flag &nIter &nFun \\ 
arglina.nl &1 &1 &1 \\ 
arglinb.nl &1 &2 &2 \\ 
arglinc.nl &1 &2 &2 \\ 
bard.nl &1 &7 &7 \\ 
bdqrtic.nl &1 &10 &10 \\ 
beale.nl &1 &9 &10 \\ 
biggs6.nl &1 &38 &51 \\ 
box3.nl &1 &8 &9 \\ 
brownal.nl &1 &7 &7 \\ 
brownbs.nl &1 &8 &8 \\ 
chainwoo.nl &1 &90 &145 \\ 
chnrosnb.nl &1 &52 &92 \\ 
cube.nl &1 &28 &36 \\ 
deconvu.nl &1 &44 &50 \\ 
denschnb.nl &1 &6 &12 \\ 
denschnc.nl &1 &11 &12 \\ 
denschnd.nl &1 &35 &52 \\ 
denschne.nl &1 &10 &11 \\ 
denschnf.nl &1 &6 &6 \\ 
eigenals.nl &1 &23 &27 \\ 
eigenbls.nl &1 &118 &154 \\ 
engval2.nl &1 &16 &20 \\ 
errinros.nl &1 &29 &40 \\ 
expfit.nl &1 &6 &9 \\ 
extrosnb.nl &1 &0 &0 \\ 
genhumps.nl &1 &58 &120 \\ 
genrose.nl &1 &894 &1370 \\ 
growthls.nl &0 &74 &151 \\ 
gulf.nl &1 &21 &27 \\ 
hatfldd.nl &1 &20 &21 \\ 
hatflde.nl &1 &19 &21 \\ 
heart6ls.nl &1 &905 &1139 \\ 
heart8ls.nl &1 &74 &99 \\ 
helix.nl &1 &10 &12 \\ 
himmelbf.nl &1 &10 &10 \\ 
humps.nl &1 &168 &415 \\ 
kowosb.nl &1 &8 &18 \\ 
mancino.nl &1 &5 &5 \\ 
meyer3.nl &0 &207 &298 \\ 
msqrtals.nl &1 &32 &55 \\ 
msqrtbls.nl &1 &28 &39 \\ 
nonmsqrt.nl &1 &143 &202 \\ 
osborneb.nl &1 &19 &22 \\ 
palmer5c.nl &1 &1 &1 \\ 
palmer6c.nl &1 &1 &1 \\ 
palmer7c.nl &1 &1 &1 \\ 
palmer8c.nl &1 &1 &1 \\ 
penalty1.nl &1 &40 &42 \\ 
penalty2.nl &1 &19 &20 \\ 
pfit1ls.nl &1 &60 &81 \\ 
pfit2ls.nl &1 &179 &244 \\ 
pfit3ls.nl &1 &217 &290 \\ 
pfit4ls.nl &1 &284 &387 \\ 
rosenbr.nl &1 &22 &28 \\ 
s308.nl &1 &9 &10 \\ 
sensors.nl &1 &30 &54 \\ 
sineval.nl &1 &44 &61 \\ 
watson.nl &1 &12 &12 \\ 
yfitu.nl &1 &38 &48 \\ 
