%!PS-Adobe-3.0 EPSF-3.0
%%Creator: (MATLAB, The Mathworks, Inc. Version 9.0.0.370719 \(R2016a\). Operating System: Windows 7)
%%Title: ./efun_subbfgs_200maxiter.eps
%%CreationDate: 2018-08-15T13:55:40
%%Pages: (atend)
%%BoundingBox:     7     0   381   297
%%LanguageLevel: 3
%%EndComments
%%BeginProlog
%%BeginResource: procset (Apache XML Graphics Std ProcSet) 1.2 0
%%Version: 1.2 0
%%Copyright: (Copyright 2001-2003,2010 The Apache Software Foundation. License terms: http://www.apache.org/licenses/LICENSE-2.0)
/bd{bind def}bind def
/ld{load def}bd
/GR/grestore ld
/M/moveto ld
/LJ/setlinejoin ld
/C/curveto ld
/f/fill ld
/LW/setlinewidth ld
/GC/setgray ld
/t/show ld
/N/newpath ld
/CT/concat ld
/cp/closepath ld
/S/stroke ld
/L/lineto ld
/CC/setcmykcolor ld
/A/ashow ld
/GS/gsave ld
/RC/setrgbcolor ld
/RM/rmoveto ld
/ML/setmiterlimit ld
/re {4 2 roll M
1 index 0 rlineto
0 exch rlineto
neg 0 rlineto
cp } bd
/_ctm matrix def
/_tm matrix def
/BT { _ctm currentmatrix pop matrix _tm copy pop 0 0 moveto } bd
/ET { _ctm setmatrix } bd
/iTm { _ctm setmatrix _tm concat } bd
/Tm { _tm astore pop iTm 0 0 moveto } bd
/ux 0.0 def
/uy 0.0 def
/F {
  /Tp exch def
  /Tf exch def
  Tf findfont Tp scalefont setfont
  /cf Tf def  /cs Tp def
} bd
/ULS {currentpoint /uy exch def /ux exch def} bd
/ULE {
  /Tcx currentpoint pop def
  gsave
  newpath
  cf findfont cs scalefont dup
  /FontMatrix get 0 get /Ts exch def /FontInfo get dup
  /UnderlinePosition get Ts mul /To exch def
  /UnderlineThickness get Ts mul /Tt exch def
  ux uy To add moveto  Tcx uy To add lineto
  Tt setlinewidth stroke
  grestore
} bd
/OLE {
  /Tcx currentpoint pop def
  gsave
  newpath
  cf findfont cs scalefont dup
  /FontMatrix get 0 get /Ts exch def /FontInfo get dup
  /UnderlinePosition get Ts mul /To exch def
  /UnderlineThickness get Ts mul /Tt exch def
  ux uy To add cs add moveto Tcx uy To add cs add lineto
  Tt setlinewidth stroke
  grestore
} bd
/SOE {
  /Tcx currentpoint pop def
  gsave
  newpath
  cf findfont cs scalefont dup
  /FontMatrix get 0 get /Ts exch def /FontInfo get dup
  /UnderlinePosition get Ts mul /To exch def
  /UnderlineThickness get Ts mul /Tt exch def
  ux uy To add cs 10 mul 26 idiv add moveto Tcx uy To add cs 10 mul 26 idiv add lineto
  Tt setlinewidth stroke
  grestore
} bd
/QT {
/Y22 exch store
/X22 exch store
/Y21 exch store
/X21 exch store
currentpoint
/Y21 load 2 mul add 3 div exch
/X21 load 2 mul add 3 div exch
/X21 load 2 mul /X22 load add 3 div
/Y21 load 2 mul /Y22 load add 3 div
/X22 load /Y22 load curveto
} bd
/SSPD {
dup length /d exch dict def
{
/v exch def
/k exch def
currentpagedevice k known {
/cpdv currentpagedevice k get def
v cpdv ne {
/upd false def
/nullv v type /nulltype eq def
/nullcpdv cpdv type /nulltype eq def
nullv nullcpdv or
{
/upd true def
} {
/sametype v type cpdv type eq def
sametype {
v type /arraytype eq {
/vlen v length def
/cpdvlen cpdv length def
vlen cpdvlen eq {
0 1 vlen 1 sub {
/i exch def
/obj v i get def
/cpdobj cpdv i get def
obj cpdobj ne {
/upd true def
exit
} if
} for
} {
/upd true def
} ifelse
} {
v type /dicttype eq {
v {
/dv exch def
/dk exch def
/cpddv cpdv dk get def
dv cpddv ne {
/upd true def
exit
} if
} forall
} {
/upd true def
} ifelse
} ifelse
} if
} ifelse
upd true eq {
d k v put
} if
} if
} if
} forall
d length 0 gt {
d setpagedevice
} if
} bd
%%EndResource
%%BeginResource: procset (Apache XML Graphics EPS ProcSet) 1.0 0
%%Version: 1.0 0
%%Copyright: (Copyright 2002-2003 The Apache Software Foundation. License terms: http://www.apache.org/licenses/LICENSE-2.0)
/BeginEPSF { %def
/b4_Inc_state save def         % Save state for cleanup
/dict_count countdictstack def % Count objects on dict stack
/op_count count 1 sub def      % Count objects on operand stack
userdict begin                 % Push userdict on dict stack
/showpage { } def              % Redefine showpage, { } = null proc
0 setgray 0 setlinecap         % Prepare graphics state
1 setlinewidth 0 setlinejoin
10 setmiterlimit [ ] 0 setdash newpath
/languagelevel where           % If level not equal to 1 then
{pop languagelevel             % set strokeadjust and
1 ne                           % overprint to their defaults.
{false setstrokeadjust false setoverprint
} if
} if
} bd
/EndEPSF { %def
count op_count sub {pop} repeat            % Clean up stacks
countdictstack dict_count sub {end} repeat
b4_Inc_state restore
} bd
%%EndResource
%FOPBeginFontDict
%%IncludeResource: font Courier-Bold
%%IncludeResource: font Helvetica
%%IncludeResource: font Courier-BoldOblique
%%IncludeResource: font Courier-Oblique
%%IncludeResource: font Times-Roman
%%IncludeResource: font Helvetica-BoldOblique
%%IncludeResource: font Helvetica-Bold
%%IncludeResource: font Helvetica-Oblique
%%IncludeResource: font Times-BoldItalic
%%IncludeResource: font Courier
%%IncludeResource: font Times-Italic
%%IncludeResource: font Times-Bold
%%IncludeResource: font Symbol
%%IncludeResource: font ZapfDingbats
%FOPEndFontDict
%%BeginResource: encoding WinAnsiEncoding
/WinAnsiEncoding [
/.notdef /.notdef /.notdef /.notdef /.notdef
/.notdef /.notdef /.notdef /.notdef /.notdef
/.notdef /.notdef /.notdef /.notdef /.notdef
/.notdef /.notdef /.notdef /.notdef /.notdef
/.notdef /.notdef /.notdef /.notdef /.notdef
/.notdef /.notdef /.notdef /.notdef /.notdef
/.notdef /.notdef /space /exclam /quotedbl
/numbersign /dollar /percent /ampersand /quotesingle
/parenleft /parenright /asterisk /plus /comma
/hyphen /period /slash /zero /one
/two /three /four /five /six
/seven /eight /nine /colon /semicolon
/less /equal /greater /question /at
/A /B /C /D /E
/F /G /H /I /J
/K /L /M /N /O
/P /Q /R /S /T
/U /V /W /X /Y
/Z /bracketleft /backslash /bracketright /asciicircum
/underscore /quoteleft /a /b /c
/d /e /f /g /h
/i /j /k /l /m
/n /o /p /q /r
/s /t /u /v /w
/x /y /z /braceleft /bar
/braceright /asciitilde /bullet /Euro /bullet
/quotesinglbase /florin /quotedblbase /ellipsis /dagger
/daggerdbl /circumflex /perthousand /Scaron /guilsinglleft
/OE /bullet /Zcaron /bullet /bullet
/quoteleft /quoteright /quotedblleft /quotedblright /bullet
/endash /emdash /asciitilde /trademark /scaron
/guilsinglright /oe /bullet /zcaron /Ydieresis
/space /exclamdown /cent /sterling /currency
/yen /brokenbar /section /dieresis /copyright
/ordfeminine /guillemotleft /logicalnot /sfthyphen /registered
/macron /degree /plusminus /twosuperior /threesuperior
/acute /mu /paragraph /middot /cedilla
/onesuperior /ordmasculine /guillemotright /onequarter /onehalf
/threequarters /questiondown /Agrave /Aacute /Acircumflex
/Atilde /Adieresis /Aring /AE /Ccedilla
/Egrave /Eacute /Ecircumflex /Edieresis /Igrave
/Iacute /Icircumflex /Idieresis /Eth /Ntilde
/Ograve /Oacute /Ocircumflex /Otilde /Odieresis
/multiply /Oslash /Ugrave /Uacute /Ucircumflex
/Udieresis /Yacute /Thorn /germandbls /agrave
/aacute /acircumflex /atilde /adieresis /aring
/ae /ccedilla /egrave /eacute /ecircumflex
/edieresis /igrave /iacute /icircumflex /idieresis
/eth /ntilde /ograve /oacute /ocircumflex
/otilde /odieresis /divide /oslash /ugrave
/uacute /ucircumflex /udieresis /yacute /thorn
/ydieresis
] def
%%EndResource
%FOPBeginFontReencode
/Courier-Bold findfont
dup length dict begin
  {1 index /FID ne {def} {pop pop} ifelse} forall
  /Encoding WinAnsiEncoding def
  currentdict
end
/Courier-Bold exch definefont pop
/Helvetica findfont
dup length dict begin
  {1 index /FID ne {def} {pop pop} ifelse} forall
  /Encoding WinAnsiEncoding def
  currentdict
end
/Helvetica exch definefont pop
/Courier-BoldOblique findfont
dup length dict begin
  {1 index /FID ne {def} {pop pop} ifelse} forall
  /Encoding WinAnsiEncoding def
  currentdict
end
/Courier-BoldOblique exch definefont pop
/Courier-Oblique findfont
dup length dict begin
  {1 index /FID ne {def} {pop pop} ifelse} forall
  /Encoding WinAnsiEncoding def
  currentdict
end
/Courier-Oblique exch definefont pop
/Times-Roman findfont
dup length dict begin
  {1 index /FID ne {def} {pop pop} ifelse} forall
  /Encoding WinAnsiEncoding def
  currentdict
end
/Times-Roman exch definefont pop
/Helvetica-BoldOblique findfont
dup length dict begin
  {1 index /FID ne {def} {pop pop} ifelse} forall
  /Encoding WinAnsiEncoding def
  currentdict
end
/Helvetica-BoldOblique exch definefont pop
/Helvetica-Bold findfont
dup length dict begin
  {1 index /FID ne {def} {pop pop} ifelse} forall
  /Encoding WinAnsiEncoding def
  currentdict
end
/Helvetica-Bold exch definefont pop
/Helvetica-Oblique findfont
dup length dict begin
  {1 index /FID ne {def} {pop pop} ifelse} forall
  /Encoding WinAnsiEncoding def
  currentdict
end
/Helvetica-Oblique exch definefont pop
/Times-BoldItalic findfont
dup length dict begin
  {1 index /FID ne {def} {pop pop} ifelse} forall
  /Encoding WinAnsiEncoding def
  currentdict
end
/Times-BoldItalic exch definefont pop
/Courier findfont
dup length dict begin
  {1 index /FID ne {def} {pop pop} ifelse} forall
  /Encoding WinAnsiEncoding def
  currentdict
end
/Courier exch definefont pop
/Times-Italic findfont
dup length dict begin
  {1 index /FID ne {def} {pop pop} ifelse} forall
  /Encoding WinAnsiEncoding def
  currentdict
end
/Times-Italic exch definefont pop
/Times-Bold findfont
dup length dict begin
  {1 index /FID ne {def} {pop pop} ifelse} forall
  /Encoding WinAnsiEncoding def
  currentdict
end
/Times-Bold exch definefont pop
%FOPEndFontReencode
%%EndProlog
%%Page: 1 1
%%PageBoundingBox: 0 0 420 315
%%BeginPageSetup
[1 0 0 -1 0 315] CT
%%EndPageSetup
GS
[0.75 0 0 0.75 0 0] CT
1 GC
N
0 0 560 420 re
f
GR
GS
[0.75 0 0 0.75 0 0] CT
1 GC
N
0 0 560 420 re
f
GR
GS
[0.75 0 0 0.75 0 0] CT
1 GC
N
73 360 M
507 360 L
507 31 L
73 31 L
cp
f
GR
GS
[0.75 0 0 0.75 0 0] CT
0.149 GC
2 setlinecap
1 LJ
0.667 LW
N
73 360 M
507 360 L
S
GR
GS
[0.75 0 0 0.75 0 0] CT
0.149 GC
2 setlinecap
1 LJ
0.667 LW
N
73 31 M
507 31 L
S
GR
GS
[0.75 0 0 0.75 0 0] CT
0.149 GC
2 setlinecap
1 LJ
0.667 LW
N
124.256 360 M
124.256 355.66 L
S
GR
GS
[0.75 0 0 0.75 0 0] CT
0.149 GC
2 setlinecap
1 LJ
0.667 LW
N
188.326 360 M
188.326 355.66 L
S
GR
GS
[0.75 0 0 0.75 0 0] CT
0.149 GC
2 setlinecap
1 LJ
0.667 LW
N
252.396 360 M
252.396 355.66 L
S
GR
GS
[0.75 0 0 0.75 0 0] CT
0.149 GC
2 setlinecap
1 LJ
0.667 LW
N
316.466 360 M
316.466 355.66 L
S
GR
GS
[0.75 0 0 0.75 0 0] CT
0.149 GC
2 setlinecap
1 LJ
0.667 LW
N
380.536 360 M
380.536 355.66 L
S
GR
GS
[0.75 0 0 0.75 0 0] CT
0.149 GC
2 setlinecap
1 LJ
0.667 LW
N
444.606 360 M
444.606 355.66 L
S
GR
GS
[0.75 0 0 0.75 0 0] CT
0.149 GC
2 setlinecap
1 LJ
0.667 LW
N
124.256 31 M
124.256 35.34 L
S
GR
GS
[0.75 0 0 0.75 0 0] CT
0.149 GC
2 setlinecap
1 LJ
0.667 LW
N
188.326 31 M
188.326 35.34 L
S
GR
GS
[0.75 0 0 0.75 0 0] CT
0.149 GC
2 setlinecap
1 LJ
0.667 LW
N
252.396 31 M
252.396 35.34 L
S
GR
GS
[0.75 0 0 0.75 0 0] CT
0.149 GC
2 setlinecap
1 LJ
0.667 LW
N
316.466 31 M
316.466 35.34 L
S
GR
GS
[0.75 0 0 0.75 0 0] CT
0.149 GC
2 setlinecap
1 LJ
0.667 LW
N
380.536 31 M
380.536 35.34 L
S
GR
GS
[0.75 0 0 0.75 0 0] CT
0.149 GC
2 setlinecap
1 LJ
0.667 LW
N
444.606 31 M
444.606 35.34 L
S
GR
GS
[0.75 0 0 0.75 93.19203 274.8] CT
0.149 GC
/Helvetica 18.667 F
GS
[1 0 0 1 0 0] CT
-13.5 20 moveto 
1 -1 scale
(0.5) t 
GR
GR
GS
[0.75 0 0 0.75 141.24458 274.8] CT
0.149 GC
/Helvetica 18.667 F
GS
[1 0 0 1 0 0] CT
-5.5 20 moveto 
1 -1 scale
(1) t 
GR
GR
GS
[0.75 0 0 0.75 189.29712 274.8] CT
0.149 GC
/Helvetica 18.667 F
GS
[1 0 0 1 0 0] CT
-13.5 20 moveto 
1 -1 scale
(1.5) t 
GR
GR
GS
[0.75 0 0 0.75 237.34966 274.8] CT
0.149 GC
/Helvetica 18.667 F
GS
[1 0 0 1 0 0] CT
-5.5 20 moveto 
1 -1 scale
(2) t 
GR
GR
GS
[0.75 0 0 0.75 285.40221 274.8] CT
0.149 GC
/Helvetica 18.667 F
GS
[1 0 0 1 0 0] CT
-13.5 20 moveto 
1 -1 scale
(2.5) t 
GR
GR
GS
[0.75 0 0 0.75 333.45474 274.8] CT
0.149 GC
/Helvetica 18.667 F
GS
[1 0 0 1 0 0] CT
-5.5 20 moveto 
1 -1 scale
(3) t 
GR
GR
GS
[0.75 0 0 0.75 217.50016 294.75] CT
0.149 GC
/Helvetica 20.533 F
GS
[1 0 0 1 0 0] CT
-166 22 moveto 
1 -1 scale
(log2 - Ratio of Function Evaluations) t 
GR
GR
GS
[0.75 0 0 0.75 0 0] CT
0.149 GC
2 setlinecap
1 LJ
0.667 LW
N
73 360 M
73 31 L
S
GR
GS
[0.75 0 0 0.75 0 0] CT
0.149 GC
2 setlinecap
1 LJ
0.667 LW
N
507 360 M
507 31 L
S
GR
GS
[0.75 0 0 0.75 0 0] CT
0.149 GC
2 setlinecap
1 LJ
0.667 LW
N
73 360 M
77.34 360 L
S
GR
GS
[0.75 0 0 0.75 0 0] CT
0.149 GC
2 setlinecap
1 LJ
0.667 LW
N
73 294.2 M
77.34 294.2 L
S
GR
GS
[0.75 0 0 0.75 0 0] CT
0.149 GC
2 setlinecap
1 LJ
0.667 LW
N
73 228.4 M
77.34 228.4 L
S
GR
GS
[0.75 0 0 0.75 0 0] CT
0.149 GC
2 setlinecap
1 LJ
0.667 LW
N
73 162.6 M
77.34 162.6 L
S
GR
GS
[0.75 0 0 0.75 0 0] CT
0.149 GC
2 setlinecap
1 LJ
0.667 LW
N
73 96.8 M
77.34 96.8 L
S
GR
GS
[0.75 0 0 0.75 0 0] CT
0.149 GC
2 setlinecap
1 LJ
0.667 LW
N
73 31 M
77.34 31 L
S
GR
GS
[0.75 0 0 0.75 0 0] CT
0.149 GC
2 setlinecap
1 LJ
0.667 LW
N
507 360 M
502.66 360 L
S
GR
GS
[0.75 0 0 0.75 0 0] CT
0.149 GC
2 setlinecap
1 LJ
0.667 LW
N
507 294.2 M
502.66 294.2 L
S
GR
GS
[0.75 0 0 0.75 0 0] CT
0.149 GC
2 setlinecap
1 LJ
0.667 LW
N
507 228.4 M
502.66 228.4 L
S
GR
GS
[0.75 0 0 0.75 0 0] CT
0.149 GC
2 setlinecap
1 LJ
0.667 LW
N
507 162.6 M
502.66 162.6 L
S
GR
GS
[0.75 0 0 0.75 0 0] CT
0.149 GC
2 setlinecap
1 LJ
0.667 LW
N
507 96.8 M
502.66 96.8 L
S
GR
GS
[0.75 0 0 0.75 0 0] CT
0.149 GC
2 setlinecap
1 LJ
0.667 LW
N
507 31 M
502.66 31 L
S
GR
GS
[0.75 0 0 0.75 49.95 270] CT
0.149 GC
/Helvetica 18.667 F
GS
[1 0 0 1 0 0] CT
-11 7.5 moveto 
1 -1 scale
(0) t 
GR
GR
GS
[0.75 0 0 0.75 49.95 220.65001] CT
0.149 GC
/Helvetica 18.667 F
GS
[1 0 0 1 0 0] CT
-22 7.5 moveto 
1 -1 scale
(20) t 
GR
GR
GS
[0.75 0 0 0.75 49.95 171.3] CT
0.149 GC
/Helvetica 18.667 F
GS
[1 0 0 1 0 0] CT
-22 7.5 moveto 
1 -1 scale
(40) t 
GR
GR
GS
[0.75 0 0 0.75 49.95 121.95] CT
0.149 GC
/Helvetica 18.667 F
GS
[1 0 0 1 0 0] CT
-22 7.5 moveto 
1 -1 scale
(60) t 
GR
GR
GS
[0.75 0 0 0.75 49.95 72.6] CT
0.149 GC
/Helvetica 18.667 F
GS
[1 0 0 1 0 0] CT
-22 7.5 moveto 
1 -1 scale
(80) t 
GR
GR
GS
[0.75 0 0 0.75 49.95 23.25] CT
0.149 GC
/Helvetica 18.667 F
GS
[1 0 0 1 0 0] CT
-32 7.5 moveto 
1 -1 scale
(100) t 
GR
GR
GS
[0 -0.75 0.75 0 22.95 146.62489] CT
0.149 GC
/Helvetica 20.533 F
GS
[1 0 0 1 0 0] CT
-57 -5 moveto 
1 -1 scale
(% Problems) t 
GR
GR
GS
[0.75 0 0 0.75 0 0] CT
0 0 1 RC
1 LJ
0.667 LW
N
72.957 74.453 M
80.748 74.453 L
80.748 68.245 L
81.96 68.245 L
81.96 62.038 L
87.288 62.038 L
87.288 55.83 L
94.68 55.83 L
94.68 49.623 L
129.454 49.623 L
129.454 43.415 L
170.943 43.415 L
170.943 37.208 L
507.043 37.208 L
S
GR
GS
[0.75 0 0 0.75 0 0] CT
1 0 0 RC
1 LJ
0.667 LW
N
72.957 335.17 M
73.886 335.17 L
73.886 328.962 L
78.875 328.962 L
78.875 322.755 L
80.269 322.755 L
80.269 316.547 L
93.891 316.547 L
93.891 310.34 L
93.891 310.34 L
93.891 304.132 L
97.283 304.132 L
97.283 297.925 L
117.03 297.925 L
117.03 291.717 L
119.058 291.717 L
119.058 285.509 L
127.416 285.509 L
127.416 279.302 L
135.143 279.302 L
135.143 273.094 L
135.143 273.094 L
135.143 266.887 L
141.866 266.887 L
141.866 260.679 L
143.743 260.679 L
143.743 254.472 L
147.074 254.472 L
147.074 248.264 L
160.683 248.264 L
160.683 242.057 L
166.552 242.057 L
166.552 235.849 L
167.599 235.849 L
167.599 229.642 L
173.529 229.642 L
173.529 223.434 L
178.844 223.434 L
178.844 217.226 L
205.946 217.226 L
205.946 211.019 L
210.1 211.019 L
210.1 204.811 L
212.715 204.811 L
212.715 198.604 L
222.031 198.604 L
222.031 192.396 L
229.578 192.396 L
229.578 186.189 L
241.509 186.189 L
241.509 179.981 L
241.509 179.981 L
241.509 173.774 L
241.509 173.774 L
241.509 167.566 L
250.529 167.566 L
250.529 161.358 L
275.214 161.358 L
275.214 155.151 L
295.904 155.151 L
295.904 148.943 L
316.466 148.943 L
316.466 142.736 L
323.189 142.736 L
323.189 136.528 L
338.24 136.528 L
338.24 130.321 L
353.564 130.321 L
353.564 124.113 L
354.326 124.113 L
354.326 117.906 L
383.556 117.906 L
383.556 111.698 L
457.168 111.698 L
457.168 105.491 L
507.043 105.491 L
S
GR
GS
[0.75 0 0 0.75 0 0] CT
0 1 0 RC
1 LJ
0.667 LW
N
72.957 304.132 M
93.891 304.132 L
93.891 297.925 L
93.891 297.925 L
93.891 291.717 L
96.636 291.717 L
96.636 285.509 L
113.369 285.509 L
113.369 279.302 L
113.369 279.302 L
113.369 273.094 L
113.369 273.094 L
113.369 266.887 L
113.369 266.887 L
113.369 260.679 L
117.03 260.679 L
117.03 254.472 L
117.523 254.472 L
117.523 248.264 L
119.058 248.264 L
119.058 242.057 L
119.058 242.057 L
119.058 235.849 L
122.389 235.849 L
122.389 229.642 L
124.576 229.642 L
124.576 223.434 L
135.143 223.434 L
135.143 217.226 L
135.143 217.226 L
135.143 211.019 L
135.143 211.019 L
135.143 204.811 L
136.507 204.811 L
136.507 198.604 L
141.866 198.604 L
141.866 192.396 L
144.1 192.396 L
144.1 186.189 L
147.074 186.189 L
147.074 179.981 L
165.753 179.981 L
165.753 173.774 L
173.529 173.774 L
173.529 167.566 L
178.844 167.566 L
178.844 161.358 L
178.844 161.358 L
178.844 155.151 L
183.646 155.151 L
183.646 148.943 L
186.805 148.943 L
186.805 142.736 L
188.326 142.736 L
188.326 136.528 L
199.765 136.528 L
199.765 130.321 L
204.412 130.321 L
204.412 124.113 L
216.824 124.113 L
216.824 117.906 L
220.096 117.906 L
220.096 111.698 L
225.424 111.698 L
225.424 105.491 L
243.806 105.491 L
243.806 99.283 L
247.198 99.283 L
247.198 93.075 L
295.739 93.075 L
295.739 86.868 L
316.466 86.868 L
316.466 80.66 L
338.24 80.66 L
338.24 74.453 L
507.043 74.453 L
S
GR
GS
[0.75 0 0 0.75 0 0] CT
1 LJ
0.667 LW
N
72.957 310.34 M
76.272 310.34 L
76.272 304.132 L
79.664 304.132 L
79.664 297.925 L
81.96 297.925 L
81.96 291.717 L
82.397 291.717 L
82.397 285.509 L
88.683 285.509 L
88.683 279.302 L
93.891 279.302 L
93.891 273.094 L
98.572 273.094 L
98.572 266.887 L
99.953 266.887 L
99.953 260.679 L
100.347 260.679 L
100.347 254.472 L
100.614 254.472 L
100.614 248.264 L
101.438 248.264 L
101.438 242.057 L
108.689 242.057 L
108.689 235.849 L
111.768 235.849 L
111.768 229.642 L
115.665 229.642 L
115.665 223.434 L
135.143 223.434 L
135.143 217.226 L
135.143 217.226 L
135.143 211.019 L
141.866 211.019 L
141.866 204.811 L
149.94 204.811 L
149.94 198.604 L
166.552 198.604 L
166.552 192.396 L
168.848 192.396 L
168.848 186.189 L
170.805 186.189 L
170.805 179.981 L
177.341 179.981 L
177.341 173.774 L
180.59 173.774 L
180.59 167.566 L
197.571 167.566 L
197.571 161.358 L
210.1 161.358 L
210.1 155.151 L
210.1 155.151 L
210.1 148.943 L
216.824 148.943 L
216.824 142.736 L
222.031 142.736 L
222.031 136.528 L
241.509 136.528 L
241.509 130.321 L
241.509 130.321 L
241.509 124.113 L
247.198 124.113 L
247.198 117.906 L
256.68 117.906 L
256.68 111.698 L
257.595 111.698 L
257.595 105.491 L
273.279 105.491 L
273.279 99.283 L
309.489 99.283 L
309.489 93.075 L
324.684 93.075 L
324.684 86.868 L
338.24 86.868 L
338.24 80.66 L
353.564 80.66 L
353.564 74.453 L
383.556 74.453 L
383.556 68.245 L
466.381 68.245 L
466.381 62.038 L
507.043 62.038 L
S
GR
GS
[0.75 0 0 0.75 0 0] CT
0 1 1 RC
1 LJ
0.667 LW
N
72.957 266.887 M
81.96 266.887 L
81.96 260.679 L
84.872 260.679 L
84.872 254.472 L
99.953 254.472 L
99.953 248.264 L
101.438 248.264 L
101.438 242.057 L
104.769 242.057 L
104.769 235.849 L
109.779 235.849 L
109.779 229.642 L
113.369 229.642 L
113.369 223.434 L
115.665 223.434 L
115.665 217.226 L
115.665 217.226 L
115.665 211.019 L
117.523 211.019 L
117.523 204.811 L
122.389 204.811 L
122.389 198.604 L
122.389 198.604 L
122.389 192.396 L
141.866 192.396 L
141.866 186.189 L
142.69 186.189 L
142.69 179.981 L
149.94 179.981 L
149.94 173.774 L
160.683 173.774 L
160.683 167.566 L
176.133 167.566 L
176.133 161.358 L
177.341 161.358 L
177.341 155.151 L
177.759 155.151 L
177.759 148.943 L
178.844 148.943 L
178.844 142.736 L
216.824 142.736 L
216.824 136.528 L
216.824 136.528 L
216.824 130.321 L
220.096 130.321 L
220.096 124.113 L
221.322 124.113 L
221.322 117.906 L
225.424 117.906 L
225.424 111.698 L
236.829 111.698 L
236.829 105.491 L
247.473 105.491 L
247.473 99.283 L
272.529 99.283 L
272.529 93.075 L
290.979 93.075 L
290.979 86.868 L
338.24 86.868 L
338.24 80.66 L
507.043 80.66 L
S
GR
GS
[0.75 0 0 0.75 0 0] CT
1 0 1 RC
1 LJ
0.667 LW
N
72.957 341.377 M
74.414 341.377 L
74.414 335.17 L
81.96 335.17 L
81.96 328.962 L
97.283 328.962 L
97.283 322.755 L
122.389 322.755 L
122.389 316.547 L
135.143 316.547 L
135.143 310.34 L
148.843 310.34 L
148.843 304.132 L
149.94 304.132 L
149.94 297.925 L
167.533 297.925 L
167.533 291.717 L
179.726 291.717 L
179.726 285.509 L
198.321 285.509 L
198.321 279.302 L
201.696 279.302 L
201.696 273.094 L
205.946 273.094 L
205.946 266.887 L
221.174 266.887 L
221.174 260.679 L
222.031 260.679 L
222.031 254.472 L
229.578 254.472 L
229.578 248.264 L
238.402 248.264 L
238.402 242.057 L
244.781 242.057 L
244.781 235.849 L
251.036 235.849 L
251.036 229.642 L
257.016 229.642 L
257.016 223.434 L
257.016 223.434 L
257.016 217.226 L
258.075 217.226 L
258.075 211.019 L
291.781 211.019 L
291.781 204.811 L
301.263 204.811 L
301.263 198.604 L
304.535 198.604 L
304.535 192.396 L
321.031 192.396 L
321.031 186.189 L
321.147 186.189 L
321.147 179.981 L
322.155 179.981 L
322.155 173.774 L
332.552 173.774 L
332.552 167.566 L
337.227 167.566 L
337.227 161.358 L
338.24 161.358 L
338.24 155.151 L
357.718 155.151 L
357.718 148.943 L
361.379 148.943 L
361.379 142.736 L
380.857 142.736 L
380.857 136.528 L
380.857 136.528 L
380.857 130.321 L
402.631 130.321 L
402.631 124.113 L
412.574 124.113 L
412.574 117.906 L
458.513 117.906 L
458.513 111.698 L
507.043 111.698 L
S
GR
GS
[0.75 0 0 0.75 0 0] CT
1 GC
N
370 347 M
370 196 L
494 196 L
494 347 L
cp
f
GR
GS
[0.75 0 0 0.75 305.25 156.7824] CT
/Helvetica 16.8 F
GS
[1 0 0 1 0 0] CT
0 7 moveto 
1 -1 scale
(Hes) t 
GR
GR
GS
[0.75 0 0 0.75 0 0] CT
0 0 1 RC
1 LJ
0.667 LW
N
374 209.043 M
404 209.043 L
S
GR
GS
[0.75 0 0 0.75 305.25 181.5] CT
/Helvetica 16 F
GS
[1 0 0 1 0 0] CT
0 0 moveto 
1 -1 scale
(SBFGS) t 
GR
GR
GS
[0.75 0 0 0.75 346.5 175.5] CT
/Helvetica 12 F
GS
[1 0 0 1 0 0] CT
0 0 moveto 
1 -1 scale
(M) t 
GR
GR
GS
[0.75 0 0 0.75 0 0] CT
1 0 0 RC
1 LJ
0.667 LW
N
374 233.123 M
404 233.123 L
S
GR
GS
[0.75 0 0 0.75 305.25 201] CT
/Helvetica 16 F
GS
[1 0 0 1 0 0] CT
0 0 moveto 
1 -1 scale
(SubBFGS) t 
GR
GR
GS
[0.75 0 0 0.75 360 195] CT
/Helvetica 12 F
GS
[1 0 0 1 0 0] CT
0 0 moveto 
1 -1 scale
(M) t 
GR
GR
GS
[0.75 0 0 0.75 0 0] CT
0 1 0 RC
1 LJ
0.667 LW
N
374 258.708 M
404 258.708 L
S
GR
GS
[0.75 0 0 0.75 305.25 219.75] CT
/Helvetica 16 F
GS
[1 0 0 1 0 0] CT
0 0 moveto 
1 -1 scale
(SBFGS) t 
GR
GR
GS
[0.75 0 0 0.75 346.5 213.75] CT
/Helvetica 12 F
GS
[1 0 0 1 0 0] CT
0 0 moveto 
1 -1 scale
(P) t 
GR
GR
GS
[0.75 0 0 0.75 0 0] CT
1 LJ
0.667 LW
N
374 284.292 M
404 284.292 L
S
GR
GS
[0.75 0 0 0.75 305.25 239.25] CT
/Helvetica 16 F
GS
[1 0 0 1 0 0] CT
0 0 moveto 
1 -1 scale
(SubBFGS) t 
GR
GR
GS
[0.75 0 0 0.75 360 233.25] CT
/Helvetica 12 F
GS
[1 0 0 1 0 0] CT
0 0 moveto 
1 -1 scale
(P) t 
GR
GR
GS
[0.75 0 0 0.75 0 0] CT
0 1 1 RC
1 LJ
0.667 LW
N
374 309.877 M
404 309.877 L
S
GR
GS
[0.75 0 0 0.75 305.25 250.46761] CT
/Helvetica 16.8 F
GS
[1 0 0 1 0 0] CT
0 7 moveto 
1 -1 scale
(BFGS) t 
GR
GR
GS
[0.75 0 0 0.75 0 0] CT
1 0 1 RC
1 LJ
0.667 LW
N
374 333.957 M
404 333.957 L
S
GR
GS
[0.75 0 0 0.75 0 0] CT
0.149 GC
10.0 ML
0.667 LW
N
370 347 M
370 196 L
494 196 L
494 347 L
cp
S
GR
%%Trailer
%%Pages: 1
%%EOF
