name &flag &nIter &nFun \\ 
arglina.nl &1 &5 &5 \\ 
arglinb.nl &0 &17 &27 \\ 
arglinc.nl &1 &15 &18 \\ 
bard.nl &1 &8 &8 \\ 
bdqrtic.nl &1 &10 &10 \\ 
beale.nl &1 &7 &10 \\ 
biggs6.nl &1 &18 &27 \\ 
box3.nl &1 &7 &7 \\ 
brownal.nl &1 &15 &15 \\ 
brownbs.nl &1 &12 &13 \\ 
chainwoo.nl &0 &66 &1107 \\ 
chnrosnb.nl &1 &56 &102 \\ 
cube.nl &1 &23 &31 \\ 
deconvu.nl &1 &25 &25 \\ 
denschnb.nl &1 &7 &9 \\ 
denschnc.nl &1 &10 &10 \\ 
denschnd.nl &0 &10 &1013 \\ 
denschne.nl &1 &11 &14 \\ 
denschnf.nl &1 &6 &6 \\ 
eigenals.nl &0 &0 &1000 \\ 
eigenbls.nl &1 &57 &71 \\ 
engval2.nl &1 &27 &31 \\ 
errinros.nl &0 &4 &1004 \\ 
expfit.nl &1 &10 &14 \\ 
extrosnb.nl &1 &0 &0 \\ 
growthls.nl &1 &100 &123 \\ 
gulf.nl &1 &15 &26 \\ 
hatfldd.nl &1 &17 &26 \\ 
hatflde.nl &1 &27 &34 \\ 
heart8ls.nl &1 &113 &176 \\ 
helix.nl &1 &25 &28 \\ 
himmelbf.nl &1 &9 &12 \\ 
kowosb.nl &1 &5 &8 \\ 
mancino.nl &0 &4 &1004 \\ 
msqrtals.nl &1 &31 &41 \\ 
msqrtbls.nl &1 &28 &40 \\ 
nonmsqrt.nl &0 &15 &1021 \\ 
osborneb.nl &1 &16 &19 \\ 
palmer5c.nl &1 &7 &7 \\ 
palmer6c.nl &1 &11 &19 \\ 
palmer7c.nl &1 &11 &19 \\ 
palmer8c.nl &1 &12 &22 \\ 
penalty1.nl &1 &40 &42 \\ 
penalty2.nl &1 &19 &20 \\ 
pfit2ls.nl &1 &100 &115 \\ 
pfit3ls.nl &1 &133 &168 \\ 
pfit4ls.nl &1 &177 &208 \\ 
rosenbr.nl &1 &24 &27 \\ 
s308.nl &1 &8 &8 \\ 
sensors.nl &0 &0 &1000 \\ 
sineval.nl &1 &34 &49 \\ 
watson.nl &1 &14 &14 \\ 
yfitu.nl &1 &37 &49 \\ 
