name &flag &nIter &nFun \\ 
arglina.nl &1 &2 &3 \\ 
arglinb.nl &0 &1 &71 \\ 
arglinc.nl &0 &1 &69 \\ 
bard.nl &1 &19 &24 \\ 
bdqrtic.nl &0 &119 &290 \\ 
beale.nl &1 &14 &18 \\ 
biggs6.nl &1 &72 &81 \\ 
box3.nl &1 &20 &21 \\ 
brownal.nl &1 &9 &15 \\ 
brownbs.nl &1 &11 &28 \\ 
chainwoo.nl &2 &1000 &3217 \\ 
chnrosnb.nl &1 &174 &325 \\ 
cube.nl &1 &27 &44 \\ 
deconvu.nl &1 &103 &157 \\ 
denschnb.nl &1 &8 &10 \\ 
denschnc.nl &1 &16 &22 \\ 
denschnd.nl &1 &80 &116 \\ 
denschne.nl &1 &24 &39 \\ 
denschnf.nl &1 &11 &26 \\ 
eigenals.nl &1 &97 &135 \\ 
eigenbls.nl &1 &520 &668 \\ 
engval2.nl &1 &31 &46 \\ 
errinros.nl &1 &264 &473 \\ 
expfit.nl &1 &11 &18 \\ 
extrosnb.nl &1 &0 &0 \\ 
genhumps.nl &1 &71 &89 \\ 
genrose.nl &2 &1000 &2179 \\ 
growthls.nl &1 &1 &9 \\ 
gulf.nl &1 &28 &39 \\ 
hatfldd.nl &1 &27 &34 \\ 
hatflde.nl &1 &27 &37 \\ 
heart6ls.nl &2 &1000 &1361 \\ 
heart8ls.nl &2 &1000 &1321 \\ 
helix.nl &1 &28 &35 \\ 
himmelbf.nl &0 &30 &109 \\ 
kowosb.nl &1 &28 &32 \\ 
mancino.nl &0 &93 &224 \\ 
meyer3.nl &0 &311 &535 \\ 
msqrtals.nl &2 &1000 &2099 \\ 
msqrtbls.nl &2 &1000 &2109 \\ 
nonmsqrt.nl &0 &532 &699 \\ 
osborneb.nl &1 &53 &72 \\ 
palmer5c.nl &1 &6 &12 \\ 
palmer6c.nl &1 &43 &48 \\ 
palmer7c.nl &1 &40 &44 \\ 
palmer8c.nl &1 &41 &45 \\ 
penalty1.nl &1 &414 &544 \\ 
pfit1ls.nl &1 &364 &480 \\ 
pfit2ls.nl &1 &541 &722 \\ 
rosenbr.nl &1 &36 &52 \\ 
s308.nl &1 &14 &18 \\ 
sensors.nl &0 &190 &670 \\ 
sineval.nl &1 &70 &101 \\ 
watson.nl &1 &61 &80 \\ 
yfitu.nl &1 &63 &86 \\ 
