name &flag &nIter &nFun \\ 
arglina.nl &1 &2 &2 \\ 
arglinb.nl &1 &1 &2 \\ 
arglinc.nl &1 &1 &2 \\ 
bard.nl &1 &18 &19 \\ 
bdqrtic.nl &0 &32 &86 \\ 
beale.nl &1 &13 &13 \\ 
biggs6.nl &1 &57 &63 \\ 
box3.nl &1 &18 &20 \\ 
brownal.nl &1 &14 &15 \\ 
brownbs.nl &1 &13 &30 \\ 
chainwoo.nl &2 &1000 &1525 \\ 
chnrosnb.nl &1 &59 &83 \\ 
cube.nl &1 &42 &60 \\ 
deconvu.nl &1 &53 &63 \\ 
denschnb.nl &1 &9 &10 \\ 
denschnc.nl &1 &14 &19 \\ 
denschnd.nl &1 &69 &75 \\ 
denschne.nl &1 &23 &31 \\ 
denschnf.nl &1 &11 &12 \\ 
eigenals.nl &1 &109 &112 \\ 
eigenbls.nl &1 &527 &550 \\ 
engval2.nl &1 &30 &34 \\ 
errinros.nl &1 &185 &189 \\ 
expfit.nl &1 &8 &15 \\ 
extrosnb.nl &1 &0 &0 \\ 
genhumps.nl &0 &8 &1015 \\ 
genrose.nl &2 &1000 &1789 \\ 
growthls.nl &1 &115 &148 \\ 
gulf.nl &1 &32 &40 \\ 
hatfldd.nl &1 &28 &31 \\ 
hatflde.nl &1 &29 &33 \\ 
heart6ls.nl &2 &1000 &1269 \\ 
heart8ls.nl &2 &1000 &1251 \\ 
helix.nl &1 &27 &27 \\ 
himmelbf.nl &0 &27 &82 \\ 
humps.nl &0 &34 &1097 \\ 
kowosb.nl &1 &26 &30 \\ 
mancino.nl &1 &27 &48 \\ 
meyer3.nl &0 &352 &473 \\ 
msqrtals.nl &2 &1000 &1003 \\ 
msqrtbls.nl &2 &1000 &1003 \\ 
nonmsqrt.nl &0 &163 &198 \\ 
osborneb.nl &1 &50 &60 \\ 
palmer5c.nl &1 &6 &12 \\ 
palmer6c.nl &1 &43 &45 \\ 
palmer7c.nl &1 &40 &43 \\ 
palmer8c.nl &1 &40 &42 \\ 
penalty1.nl &1 &107 &124 \\ 
penalty2.nl &0 &58 &111 \\ 
pfit1ls.nl &1 &389 &492 \\ 
pfit2ls.nl &1 &161 &225 \\ 
pfit3ls.nl &1 &262 &339 \\ 
pfit4ls.nl &1 &492 &635 \\ 
rosenbr.nl &1 &30 &35 \\ 
s308.nl &1 &10 &10 \\ 
sensors.nl &1 &34 &38 \\ 
sineval.nl &1 &62 &82 \\ 
watson.nl &1 &56 &60 \\ 
yfitu.nl &1 &57 &75 \\ 
