%!PS-Adobe-3.0 EPSF-3.0
%%Creator: (MATLAB, The Mathworks, Inc. Version 9.0.0.370719 \(R2016a\). Operating System: Windows 7)
%%Title: ./iter_setKnown_1000maxiter.eps
%%CreationDate: 2018-08-15T16:13:19
%%Pages: (atend)
%%BoundingBox:     7     0   381   297
%%LanguageLevel: 3
%%EndComments
%%BeginProlog
%%BeginResource: procset (Apache XML Graphics Std ProcSet) 1.2 0
%%Version: 1.2 0
%%Copyright: (Copyright 2001-2003,2010 The Apache Software Foundation. License terms: http://www.apache.org/licenses/LICENSE-2.0)
/bd{bind def}bind def
/ld{load def}bd
/GR/grestore ld
/M/moveto ld
/LJ/setlinejoin ld
/C/curveto ld
/f/fill ld
/LW/setlinewidth ld
/GC/setgray ld
/t/show ld
/N/newpath ld
/CT/concat ld
/cp/closepath ld
/S/stroke ld
/L/lineto ld
/CC/setcmykcolor ld
/A/ashow ld
/GS/gsave ld
/RC/setrgbcolor ld
/RM/rmoveto ld
/ML/setmiterlimit ld
/re {4 2 roll M
1 index 0 rlineto
0 exch rlineto
neg 0 rlineto
cp } bd
/_ctm matrix def
/_tm matrix def
/BT { _ctm currentmatrix pop matrix _tm copy pop 0 0 moveto } bd
/ET { _ctm setmatrix } bd
/iTm { _ctm setmatrix _tm concat } bd
/Tm { _tm astore pop iTm 0 0 moveto } bd
/ux 0.0 def
/uy 0.0 def
/F {
  /Tp exch def
  /Tf exch def
  Tf findfont Tp scalefont setfont
  /cf Tf def  /cs Tp def
} bd
/ULS {currentpoint /uy exch def /ux exch def} bd
/ULE {
  /Tcx currentpoint pop def
  gsave
  newpath
  cf findfont cs scalefont dup
  /FontMatrix get 0 get /Ts exch def /FontInfo get dup
  /UnderlinePosition get Ts mul /To exch def
  /UnderlineThickness get Ts mul /Tt exch def
  ux uy To add moveto  Tcx uy To add lineto
  Tt setlinewidth stroke
  grestore
} bd
/OLE {
  /Tcx currentpoint pop def
  gsave
  newpath
  cf findfont cs scalefont dup
  /FontMatrix get 0 get /Ts exch def /FontInfo get dup
  /UnderlinePosition get Ts mul /To exch def
  /UnderlineThickness get Ts mul /Tt exch def
  ux uy To add cs add moveto Tcx uy To add cs add lineto
  Tt setlinewidth stroke
  grestore
} bd
/SOE {
  /Tcx currentpoint pop def
  gsave
  newpath
  cf findfont cs scalefont dup
  /FontMatrix get 0 get /Ts exch def /FontInfo get dup
  /UnderlinePosition get Ts mul /To exch def
  /UnderlineThickness get Ts mul /Tt exch def
  ux uy To add cs 10 mul 26 idiv add moveto Tcx uy To add cs 10 mul 26 idiv add lineto
  Tt setlinewidth stroke
  grestore
} bd
/QT {
/Y22 exch store
/X22 exch store
/Y21 exch store
/X21 exch store
currentpoint
/Y21 load 2 mul add 3 div exch
/X21 load 2 mul add 3 div exch
/X21 load 2 mul /X22 load add 3 div
/Y21 load 2 mul /Y22 load add 3 div
/X22 load /Y22 load curveto
} bd
/SSPD {
dup length /d exch dict def
{
/v exch def
/k exch def
currentpagedevice k known {
/cpdv currentpagedevice k get def
v cpdv ne {
/upd false def
/nullv v type /nulltype eq def
/nullcpdv cpdv type /nulltype eq def
nullv nullcpdv or
{
/upd true def
} {
/sametype v type cpdv type eq def
sametype {
v type /arraytype eq {
/vlen v length def
/cpdvlen cpdv length def
vlen cpdvlen eq {
0 1 vlen 1 sub {
/i exch def
/obj v i get def
/cpdobj cpdv i get def
obj cpdobj ne {
/upd true def
exit
} if
} for
} {
/upd true def
} ifelse
} {
v type /dicttype eq {
v {
/dv exch def
/dk exch def
/cpddv cpdv dk get def
dv cpddv ne {
/upd true def
exit
} if
} forall
} {
/upd true def
} ifelse
} ifelse
} if
} ifelse
upd true eq {
d k v put
} if
} if
} if
} forall
d length 0 gt {
d setpagedevice
} if
} bd
%%EndResource
%%BeginResource: procset (Apache XML Graphics EPS ProcSet) 1.0 0
%%Version: 1.0 0
%%Copyright: (Copyright 2002-2003 The Apache Software Foundation. License terms: http://www.apache.org/licenses/LICENSE-2.0)
/BeginEPSF { %def
/b4_Inc_state save def         % Save state for cleanup
/dict_count countdictstack def % Count objects on dict stack
/op_count count 1 sub def      % Count objects on operand stack
userdict begin                 % Push userdict on dict stack
/showpage { } def              % Redefine showpage, { } = null proc
0 setgray 0 setlinecap         % Prepare graphics state
1 setlinewidth 0 setlinejoin
10 setmiterlimit [ ] 0 setdash newpath
/languagelevel where           % If level not equal to 1 then
{pop languagelevel             % set strokeadjust and
1 ne                           % overprint to their defaults.
{false setstrokeadjust false setoverprint
} if
} if
} bd
/EndEPSF { %def
count op_count sub {pop} repeat            % Clean up stacks
countdictstack dict_count sub {end} repeat
b4_Inc_state restore
} bd
%%EndResource
%FOPBeginFontDict
%%IncludeResource: font Courier-Bold
%%IncludeResource: font Helvetica
%%IncludeResource: font Courier-BoldOblique
%%IncludeResource: font Courier-Oblique
%%IncludeResource: font Times-Roman
%%IncludeResource: font Helvetica-BoldOblique
%%IncludeResource: font Helvetica-Bold
%%IncludeResource: font Helvetica-Oblique
%%IncludeResource: font Times-BoldItalic
%%IncludeResource: font Courier
%%IncludeResource: font Times-Italic
%%IncludeResource: font Times-Bold
%%IncludeResource: font Symbol
%%IncludeResource: font ZapfDingbats
%FOPEndFontDict
%%BeginResource: encoding WinAnsiEncoding
/WinAnsiEncoding [
/.notdef /.notdef /.notdef /.notdef /.notdef
/.notdef /.notdef /.notdef /.notdef /.notdef
/.notdef /.notdef /.notdef /.notdef /.notdef
/.notdef /.notdef /.notdef /.notdef /.notdef
/.notdef /.notdef /.notdef /.notdef /.notdef
/.notdef /.notdef /.notdef /.notdef /.notdef
/.notdef /.notdef /space /exclam /quotedbl
/numbersign /dollar /percent /ampersand /quotesingle
/parenleft /parenright /asterisk /plus /comma
/hyphen /period /slash /zero /one
/two /three /four /five /six
/seven /eight /nine /colon /semicolon
/less /equal /greater /question /at
/A /B /C /D /E
/F /G /H /I /J
/K /L /M /N /O
/P /Q /R /S /T
/U /V /W /X /Y
/Z /bracketleft /backslash /bracketright /asciicircum
/underscore /quoteleft /a /b /c
/d /e /f /g /h
/i /j /k /l /m
/n /o /p /q /r
/s /t /u /v /w
/x /y /z /braceleft /bar
/braceright /asciitilde /bullet /Euro /bullet
/quotesinglbase /florin /quotedblbase /ellipsis /dagger
/daggerdbl /circumflex /perthousand /Scaron /guilsinglleft
/OE /bullet /Zcaron /bullet /bullet
/quoteleft /quoteright /quotedblleft /quotedblright /bullet
/endash /emdash /asciitilde /trademark /scaron
/guilsinglright /oe /bullet /zcaron /Ydieresis
/space /exclamdown /cent /sterling /currency
/yen /brokenbar /section /dieresis /copyright
/ordfeminine /guillemotleft /logicalnot /sfthyphen /registered
/macron /degree /plusminus /twosuperior /threesuperior
/acute /mu /paragraph /middot /cedilla
/onesuperior /ordmasculine /guillemotright /onequarter /onehalf
/threequarters /questiondown /Agrave /Aacute /Acircumflex
/Atilde /Adieresis /Aring /AE /Ccedilla
/Egrave /Eacute /Ecircumflex /Edieresis /Igrave
/Iacute /Icircumflex /Idieresis /Eth /Ntilde
/Ograve /Oacute /Ocircumflex /Otilde /Odieresis
/multiply /Oslash /Ugrave /Uacute /Ucircumflex
/Udieresis /Yacute /Thorn /germandbls /agrave
/aacute /acircumflex /atilde /adieresis /aring
/ae /ccedilla /egrave /eacute /ecircumflex
/edieresis /igrave /iacute /icircumflex /idieresis
/eth /ntilde /ograve /oacute /ocircumflex
/otilde /odieresis /divide /oslash /ugrave
/uacute /ucircumflex /udieresis /yacute /thorn
/ydieresis
] def
%%EndResource
%FOPBeginFontReencode
/Courier-Bold findfont
dup length dict begin
  {1 index /FID ne {def} {pop pop} ifelse} forall
  /Encoding WinAnsiEncoding def
  currentdict
end
/Courier-Bold exch definefont pop
/Helvetica findfont
dup length dict begin
  {1 index /FID ne {def} {pop pop} ifelse} forall
  /Encoding WinAnsiEncoding def
  currentdict
end
/Helvetica exch definefont pop
/Courier-BoldOblique findfont
dup length dict begin
  {1 index /FID ne {def} {pop pop} ifelse} forall
  /Encoding WinAnsiEncoding def
  currentdict
end
/Courier-BoldOblique exch definefont pop
/Courier-Oblique findfont
dup length dict begin
  {1 index /FID ne {def} {pop pop} ifelse} forall
  /Encoding WinAnsiEncoding def
  currentdict
end
/Courier-Oblique exch definefont pop
/Times-Roman findfont
dup length dict begin
  {1 index /FID ne {def} {pop pop} ifelse} forall
  /Encoding WinAnsiEncoding def
  currentdict
end
/Times-Roman exch definefont pop
/Helvetica-BoldOblique findfont
dup length dict begin
  {1 index /FID ne {def} {pop pop} ifelse} forall
  /Encoding WinAnsiEncoding def
  currentdict
end
/Helvetica-BoldOblique exch definefont pop
/Helvetica-Bold findfont
dup length dict begin
  {1 index /FID ne {def} {pop pop} ifelse} forall
  /Encoding WinAnsiEncoding def
  currentdict
end
/Helvetica-Bold exch definefont pop
/Helvetica-Oblique findfont
dup length dict begin
  {1 index /FID ne {def} {pop pop} ifelse} forall
  /Encoding WinAnsiEncoding def
  currentdict
end
/Helvetica-Oblique exch definefont pop
/Times-BoldItalic findfont
dup length dict begin
  {1 index /FID ne {def} {pop pop} ifelse} forall
  /Encoding WinAnsiEncoding def
  currentdict
end
/Times-BoldItalic exch definefont pop
/Courier findfont
dup length dict begin
  {1 index /FID ne {def} {pop pop} ifelse} forall
  /Encoding WinAnsiEncoding def
  currentdict
end
/Courier exch definefont pop
/Times-Italic findfont
dup length dict begin
  {1 index /FID ne {def} {pop pop} ifelse} forall
  /Encoding WinAnsiEncoding def
  currentdict
end
/Times-Italic exch definefont pop
/Times-Bold findfont
dup length dict begin
  {1 index /FID ne {def} {pop pop} ifelse} forall
  /Encoding WinAnsiEncoding def
  currentdict
end
/Times-Bold exch definefont pop
%FOPEndFontReencode
%%EndProlog
%%Page: 1 1
%%PageBoundingBox: 0 0 420 315
%%BeginPageSetup
[1 0 0 -1 0 315] CT
%%EndPageSetup
GS
[0.75 0 0 0.75 0 0] CT
1 GC
N
0 0 560 420 re
f
GR
GS
[0.75 0 0 0.75 0 0] CT
1 GC
N
0 0 560 420 re
f
GR
GS
[0.75 0 0 0.75 0 0] CT
1 GC
N
73 360 M
507 360 L
507 31 L
73 31 L
cp
f
GR
GS
[0.75 0 0 0.75 0 0] CT
0.149 GC
2 setlinecap
1 LJ
0.667 LW
N
73 360 M
507 360 L
S
GR
GS
[0.75 0 0 0.75 0 0] CT
0.149 GC
2 setlinecap
1 LJ
0.667 LW
N
73 31 M
507 31 L
S
GR
GS
[0.75 0 0 0.75 0 0] CT
0.149 GC
2 setlinecap
1 LJ
0.667 LW
N
134.149 360 M
134.149 355.66 L
S
GR
GS
[0.75 0 0 0.75 0 0] CT
0.149 GC
2 setlinecap
1 LJ
0.667 LW
N
202.093 360 M
202.093 355.66 L
S
GR
GS
[0.75 0 0 0.75 0 0] CT
0.149 GC
2 setlinecap
1 LJ
0.667 LW
N
270.037 360 M
270.037 355.66 L
S
GR
GS
[0.75 0 0 0.75 0 0] CT
0.149 GC
2 setlinecap
1 LJ
0.667 LW
N
337.981 360 M
337.981 355.66 L
S
GR
GS
[0.75 0 0 0.75 0 0] CT
0.149 GC
2 setlinecap
1 LJ
0.667 LW
N
405.925 360 M
405.925 355.66 L
S
GR
GS
[0.75 0 0 0.75 0 0] CT
0.149 GC
2 setlinecap
1 LJ
0.667 LW
N
473.869 360 M
473.869 355.66 L
S
GR
GS
[0.75 0 0 0.75 0 0] CT
0.149 GC
2 setlinecap
1 LJ
0.667 LW
N
134.149 31 M
134.149 35.34 L
S
GR
GS
[0.75 0 0 0.75 0 0] CT
0.149 GC
2 setlinecap
1 LJ
0.667 LW
N
202.093 31 M
202.093 35.34 L
S
GR
GS
[0.75 0 0 0.75 0 0] CT
0.149 GC
2 setlinecap
1 LJ
0.667 LW
N
270.037 31 M
270.037 35.34 L
S
GR
GS
[0.75 0 0 0.75 0 0] CT
0.149 GC
2 setlinecap
1 LJ
0.667 LW
N
337.981 31 M
337.981 35.34 L
S
GR
GS
[0.75 0 0 0.75 0 0] CT
0.149 GC
2 setlinecap
1 LJ
0.667 LW
N
405.925 31 M
405.925 35.34 L
S
GR
GS
[0.75 0 0 0.75 0 0] CT
0.149 GC
2 setlinecap
1 LJ
0.667 LW
N
473.869 31 M
473.869 35.34 L
S
GR
GS
[0.75 0 0 0.75 100.61208 274.8] CT
0.149 GC
/Helvetica 18.667 F
GS
[1 0 0 1 0 0] CT
-5.5 20 moveto 
1 -1 scale
(1) t 
GR
GR
GS
[0.75 0 0 0.75 151.56995 274.8] CT
0.149 GC
/Helvetica 18.667 F
GS
[1 0 0 1 0 0] CT
-5.5 20 moveto 
1 -1 scale
(2) t 
GR
GR
GS
[0.75 0 0 0.75 202.52781 274.8] CT
0.149 GC
/Helvetica 18.667 F
GS
[1 0 0 1 0 0] CT
-5.5 20 moveto 
1 -1 scale
(3) t 
GR
GR
GS
[0.75 0 0 0.75 253.48567 274.8] CT
0.149 GC
/Helvetica 18.667 F
GS
[1 0 0 1 0 0] CT
-5.5 20 moveto 
1 -1 scale
(4) t 
GR
GR
GS
[0.75 0 0 0.75 304.44356 274.8] CT
0.149 GC
/Helvetica 18.667 F
GS
[1 0 0 1 0 0] CT
-5.5 20 moveto 
1 -1 scale
(5) t 
GR
GR
GS
[0.75 0 0 0.75 355.40142 274.8] CT
0.149 GC
/Helvetica 18.667 F
GS
[1 0 0 1 0 0] CT
-5.5 20 moveto 
1 -1 scale
(6) t 
GR
GR
GS
[0.75 0 0 0.75 217.50016 294.75] CT
0.149 GC
/Helvetica 20.533 F
GS
[1 0 0 1 0 0] CT
-111.5 22 moveto 
1 -1 scale
(log2 - Ratio of Iterations) t 
GR
GR
GS
[0.75 0 0 0.75 0 0] CT
0.149 GC
2 setlinecap
1 LJ
0.667 LW
N
73 360 M
73 31 L
S
GR
GS
[0.75 0 0 0.75 0 0] CT
0.149 GC
2 setlinecap
1 LJ
0.667 LW
N
507 360 M
507 31 L
S
GR
GS
[0.75 0 0 0.75 0 0] CT
0.149 GC
2 setlinecap
1 LJ
0.667 LW
N
73 360 M
77.34 360 L
S
GR
GS
[0.75 0 0 0.75 0 0] CT
0.149 GC
2 setlinecap
1 LJ
0.667 LW
N
73 294.2 M
77.34 294.2 L
S
GR
GS
[0.75 0 0 0.75 0 0] CT
0.149 GC
2 setlinecap
1 LJ
0.667 LW
N
73 228.4 M
77.34 228.4 L
S
GR
GS
[0.75 0 0 0.75 0 0] CT
0.149 GC
2 setlinecap
1 LJ
0.667 LW
N
73 162.6 M
77.34 162.6 L
S
GR
GS
[0.75 0 0 0.75 0 0] CT
0.149 GC
2 setlinecap
1 LJ
0.667 LW
N
73 96.8 M
77.34 96.8 L
S
GR
GS
[0.75 0 0 0.75 0 0] CT
0.149 GC
2 setlinecap
1 LJ
0.667 LW
N
73 31 M
77.34 31 L
S
GR
GS
[0.75 0 0 0.75 0 0] CT
0.149 GC
2 setlinecap
1 LJ
0.667 LW
N
507 360 M
502.66 360 L
S
GR
GS
[0.75 0 0 0.75 0 0] CT
0.149 GC
2 setlinecap
1 LJ
0.667 LW
N
507 294.2 M
502.66 294.2 L
S
GR
GS
[0.75 0 0 0.75 0 0] CT
0.149 GC
2 setlinecap
1 LJ
0.667 LW
N
507 228.4 M
502.66 228.4 L
S
GR
GS
[0.75 0 0 0.75 0 0] CT
0.149 GC
2 setlinecap
1 LJ
0.667 LW
N
507 162.6 M
502.66 162.6 L
S
GR
GS
[0.75 0 0 0.75 0 0] CT
0.149 GC
2 setlinecap
1 LJ
0.667 LW
N
507 96.8 M
502.66 96.8 L
S
GR
GS
[0.75 0 0 0.75 0 0] CT
0.149 GC
2 setlinecap
1 LJ
0.667 LW
N
507 31 M
502.66 31 L
S
GR
GS
[0.75 0 0 0.75 49.95 270] CT
0.149 GC
/Helvetica 18.667 F
GS
[1 0 0 1 0 0] CT
-11 7.5 moveto 
1 -1 scale
(0) t 
GR
GR
GS
[0.75 0 0 0.75 49.95 220.65001] CT
0.149 GC
/Helvetica 18.667 F
GS
[1 0 0 1 0 0] CT
-22 7.5 moveto 
1 -1 scale
(20) t 
GR
GR
GS
[0.75 0 0 0.75 49.95 171.3] CT
0.149 GC
/Helvetica 18.667 F
GS
[1 0 0 1 0 0] CT
-22 7.5 moveto 
1 -1 scale
(40) t 
GR
GR
GS
[0.75 0 0 0.75 49.95 121.95] CT
0.149 GC
/Helvetica 18.667 F
GS
[1 0 0 1 0 0] CT
-22 7.5 moveto 
1 -1 scale
(60) t 
GR
GR
GS
[0.75 0 0 0.75 49.95 72.6] CT
0.149 GC
/Helvetica 18.667 F
GS
[1 0 0 1 0 0] CT
-22 7.5 moveto 
1 -1 scale
(80) t 
GR
GR
GS
[0.75 0 0 0.75 49.95 23.25] CT
0.149 GC
/Helvetica 18.667 F
GS
[1 0 0 1 0 0] CT
-32 7.5 moveto 
1 -1 scale
(100) t 
GR
GR
GS
[0 -0.75 0.75 0 22.95 146.62489] CT
0.149 GC
/Helvetica 20.533 F
GS
[1 0 0 1 0 0] CT
-57 -5 moveto 
1 -1 scale
(% Problems) t 
GR
GR
GS
[0.75 0 0 0.75 0 0] CT
0 0 1 RC
1 LJ
0.667 LW
N
72.957 80.66 M
72.968 80.66 L
72.968 74.453 L
78.474 74.453 L
78.474 68.245 L
86.919 68.245 L
86.919 62.038 L
87.517 62.038 L
87.517 55.83 L
96.608 55.83 L
96.608 49.623 L
105.95 49.623 L
105.95 43.415 L
253.383 43.415 L
253.383 37.208 L
507.043 37.208 L
S
GR
GS
[0.75 0 0 0.75 0 0] CT
1 0 0 RC
1 LJ
0.667 LW
N
72.957 347.585 M
79.295 347.585 L
79.295 341.377 L
79.295 341.377 L
79.295 335.17 L
82.136 335.17 L
82.136 328.962 L
84.077 328.962 L
84.077 322.755 L
85.393 322.755 L
85.393 316.547 L
86.763 316.547 L
86.763 310.34 L
89.008 310.34 L
89.008 304.132 L
97.421 304.132 L
97.421 297.925 L
105.95 297.925 L
105.95 291.717 L
110.51 291.717 L
110.51 285.509 L
112.276 285.509 L
112.276 279.302 L
114.479 279.302 L
114.479 273.094 L
115.118 273.094 L
115.118 266.887 L
116.278 266.887 L
116.278 260.679 L
116.278 260.679 L
116.278 254.472 L
118.219 254.472 L
118.219 248.264 L
134.149 248.264 L
134.149 242.057 L
134.149 242.057 L
134.149 235.849 L
139.449 235.849 L
139.449 229.642 L
140.092 229.642 L
140.092 223.434 L
140.615 223.434 L
140.615 217.226 L
141.523 217.226 L
141.523 211.019 L
142.438 211.019 L
142.438 204.811 L
145.695 204.811 L
145.695 198.604 L
151.493 198.604 L
151.493 192.396 L
156.022 192.396 L
156.022 186.189 L
162.349 186.189 L
162.349 179.981 L
170.571 179.981 L
170.571 173.774 L
173.894 173.774 L
173.894 167.566 L
180.22 167.566 L
180.22 161.358 L
198.323 161.358 L
198.323 155.151 L
202.093 155.151 L
202.093 148.943 L
208.419 148.943 L
208.419 142.736 L
218.714 142.736 L
218.714 136.528 L
220.335 136.528 L
220.335 130.321 L
225.265 130.321 L
225.265 124.113 L
276.698 124.113 L
276.698 117.906 L
279.618 117.906 L
279.618 111.698 L
286.882 111.698 L
286.882 105.491 L
289.428 105.491 L
289.428 99.283 L
289.428 99.283 L
289.428 93.075 L
291.91 93.075 L
291.91 86.868 L
507.043 86.868 L
S
GR
GS
[0.75 0 0 0.75 0 0] CT
0 1 0 RC
1 LJ
0.667 LW
N
72.957 297.925 M
72.968 297.925 L
72.968 291.717 L
75.26 291.717 L
75.26 285.509 L
78.736 285.509 L
78.736 279.302 L
79.295 279.302 L
79.295 273.094 L
79.295 273.094 L
79.295 266.887 L
82.136 266.887 L
82.136 260.679 L
82.136 260.679 L
82.136 254.472 L
84.077 254.472 L
84.077 248.264 L
89.622 248.264 L
89.622 242.057 L
92.861 242.057 L
92.861 235.849 L
94.405 235.849 L
94.405 229.642 L
95.623 229.642 L
95.623 223.434 L
96.608 223.434 L
96.608 217.226 L
97.421 217.226 L
97.421 211.019 L
97.421 211.019 L
97.421 204.811 L
97.662 204.811 L
97.662 198.604 L
99.187 198.604 L
99.187 192.396 L
101.168 192.396 L
101.168 186.189 L
102.251 186.189 L
102.251 179.981 L
105.95 179.981 L
105.95 173.774 L
115.118 173.774 L
115.118 167.566 L
116.278 167.566 L
116.278 161.358 L
116.278 161.358 L
116.278 155.151 L
118.219 155.151 L
118.219 148.943 L
119.779 148.943 L
119.779 142.736 L
134.149 142.736 L
134.149 136.528 L
134.149 136.528 L
134.149 130.321 L
134.149 130.321 L
134.149 124.113 L
135.77 124.113 L
135.77 117.906 L
138.507 117.906 L
138.507 111.698 L
140.092 111.698 L
140.092 105.491 L
141.238 105.491 L
141.238 99.283 L
149.26 99.283 L
149.26 93.075 L
151.24 93.075 L
151.24 86.868 L
156.022 86.868 L
156.022 80.66 L
165.365 80.66 L
165.365 74.453 L
165.365 74.453 L
165.365 68.245 L
167.131 68.245 L
167.131 62.038 L
173.894 62.038 L
173.894 55.83 L
195.767 55.83 L
195.767 49.623 L
213.639 49.623 L
213.639 43.415 L
466.928 43.415 L
466.928 37.208 L
507.043 37.208 L
S
GR
GS
[0.75 0 0 0.75 0 0] CT
1 LJ
0.667 LW
N
72.957 304.132 M
73.338 304.132 L
73.338 297.925 L
77.751 297.925 L
77.751 291.717 L
78.736 291.717 L
78.736 285.509 L
84.077 285.509 L
84.077 279.302 L
91.719 279.302 L
91.719 273.094 L
91.923 273.094 L
91.923 266.887 L
94.405 266.887 L
94.405 260.679 L
95.836 260.679 L
95.836 254.472 L
100.008 254.472 L
100.008 248.264 L
103.747 248.264 L
103.747 242.057 L
105.95 242.057 L
105.95 235.849 L
107.655 235.849 L
107.655 229.642 L
111.25 229.642 L
111.25 223.434 L
113.796 223.434 L
113.796 217.226 L
114.479 217.226 L
114.479 211.019 L
116.278 211.019 L
116.278 204.811 L
122.604 204.811 L
122.604 198.604 L
123.822 198.604 L
123.822 192.396 L
127.636 192.396 L
127.636 186.189 L
134.149 186.189 L
134.149 179.981 L
138.781 179.981 L
138.781 173.774 L
140.912 173.774 L
140.912 167.566 L
144.966 167.566 L
144.966 161.358 L
145.695 161.358 L
145.695 155.151 L
150.08 155.151 L
150.08 148.943 L
153.541 148.943 L
153.541 142.736 L
162.349 142.736 L
162.349 136.528 L
163.566 136.528 L
163.566 130.321 L
173.894 130.321 L
173.894 124.113 L
180.899 124.113 L
180.899 117.906 L
188.066 117.906 L
188.066 111.698 L
197.533 111.698 L
197.533 105.491 L
202.093 105.491 L
202.093 99.283 L
206.451 99.283 L
206.451 93.075 L
213.164 93.075 L
213.164 86.868 L
246.953 86.868 L
246.953 80.66 L
277.411 80.66 L
277.411 74.453 L
281.582 74.453 L
281.582 68.245 L
286.882 68.245 L
286.882 62.038 L
289.428 62.038 L
289.428 55.83 L
291.91 55.83 L
291.91 49.623 L
507.043 49.623 L
S
GR
GS
[0.75 0 0 0.75 0 0] CT
0 1 1 RC
1 LJ
0.667 LW
N
72.957 242.057 M
73.47 242.057 L
73.47 235.849 L
75.26 235.849 L
75.26 229.642 L
76.183 229.642 L
76.183 223.434 L
79.295 223.434 L
79.295 217.226 L
79.295 217.226 L
79.295 211.019 L
82.581 211.019 L
82.581 204.811 L
84.077 204.811 L
84.077 198.604 L
85.876 198.604 L
85.876 192.396 L
89.845 192.396 L
89.845 186.189 L
95.836 186.189 L
95.836 179.981 L
96.608 179.981 L
96.608 173.774 L
96.608 173.774 L
96.608 167.566 L
99.187 167.566 L
99.187 161.358 L
100.008 161.358 L
100.008 155.151 L
101.778 155.151 L
101.778 148.943 L
105.95 148.943 L
105.95 142.736 L
109.952 142.736 L
109.952 136.528 L
116.278 136.528 L
116.278 130.321 L
128.258 130.321 L
128.258 124.113 L
128.547 124.113 L
128.547 117.906 L
130.585 117.906 L
130.585 111.698 L
145.695 111.698 L
145.695 105.491 L
149.26 105.491 L
149.26 99.283 L
150.995 99.283 L
150.995 93.075 L
156.022 93.075 L
156.022 86.868 L
165.365 86.868 L
165.365 80.66 L
165.365 80.66 L
165.365 74.453 L
172.247 74.453 L
172.247 68.245 L
173.894 68.245 L
173.894 62.038 L
179.194 62.038 L
179.194 55.83 L
195.767 55.83 L
195.767 49.623 L
214.624 49.623 L
214.624 43.415 L
313.783 43.415 L
313.783 37.208 L
507.043 37.208 L
S
GR
GS
[0.75 0 0 0.75 0 0] CT
1 0 1 RC
1 LJ
0.667 LW
N
72.957 316.547 M
90.84 316.547 L
90.84 310.34 L
94.405 310.34 L
94.405 304.132 L
96.608 304.132 L
96.608 297.925 L
105.95 297.925 L
105.95 291.717 L
113.592 291.717 L
113.592 285.509 L
114.479 285.509 L
114.479 279.302 L
115.118 279.302 L
115.118 273.094 L
118.219 273.094 L
118.219 266.887 L
123.822 266.887 L
123.822 260.679 L
125.62 260.679 L
125.62 254.472 L
134.149 254.472 L
134.149 248.264 L
134.149 248.264 L
134.149 242.057 L
134.149 242.057 L
134.149 235.849 L
134.149 235.849 L
134.149 229.642 L
149.26 229.642 L
149.26 223.434 L
153.541 223.434 L
153.541 217.226 L
161.625 217.226 L
161.625 211.019 L
163.566 211.019 L
163.566 204.811 L
166.35 204.811 L
166.35 198.604 L
179.873 198.604 L
179.873 192.396 L
180.22 192.396 L
180.22 186.189 L
180.899 186.189 L
180.899 179.981 L
185.439 179.981 L
185.439 173.774 L
188.066 173.774 L
188.066 167.566 L
188.536 167.566 L
188.536 161.358 L
193.564 161.358 L
193.564 155.151 L
207.281 155.151 L
207.281 148.943 L
212.643 148.943 L
212.643 142.736 L
214.156 142.736 L
214.156 136.528 L
225.732 136.528 L
225.732 130.321 L
233.309 130.321 L
233.309 124.113 L
274.527 124.113 L
274.527 117.906 L
275.401 117.906 L
275.401 111.698 L
286.882 111.698 L
286.882 105.491 L
291.91 105.491 L
291.91 99.283 L
294.331 99.283 L
294.331 93.075 L
296.693 93.075 L
296.693 86.868 L
507.043 86.868 L
S
GR
GS
[0.75 0 0 0.75 0 0] CT
1 GC
N
370 347 M
370 196 L
494 196 L
494 347 L
cp
f
GR
GS
[0.75 0 0 0.75 305.25 156.7824] CT
/Helvetica 16.8 F
GS
[1 0 0 1 0 0] CT
0 7 moveto 
1 -1 scale
(Hes) t 
GR
GR
GS
[0.75 0 0 0.75 0 0] CT
0 0 1 RC
1 LJ
0.667 LW
N
374 209.043 M
404 209.043 L
S
GR
GS
[0.75 0 0 0.75 305.25 181.5] CT
/Helvetica 16 F
GS
[1 0 0 1 0 0] CT
0 0 moveto 
1 -1 scale
(SBFGS) t 
GR
GR
GS
[0.75 0 0 0.75 346.5 175.5] CT
/Helvetica 12 F
GS
[1 0 0 1 0 0] CT
0 0 moveto 
1 -1 scale
(M) t 
GR
GR
GS
[0.75 0 0 0.75 0 0] CT
1 0 0 RC
1 LJ
0.667 LW
N
374 233.123 M
404 233.123 L
S
GR
GS
[0.75 0 0 0.75 305.25 201] CT
/Helvetica 16 F
GS
[1 0 0 1 0 0] CT
0 0 moveto 
1 -1 scale
(SubBFGS) t 
GR
GR
GS
[0.75 0 0 0.75 360 195] CT
/Helvetica 12 F
GS
[1 0 0 1 0 0] CT
0 0 moveto 
1 -1 scale
(M) t 
GR
GR
GS
[0.75 0 0 0.75 0 0] CT
0 1 0 RC
1 LJ
0.667 LW
N
374 258.708 M
404 258.708 L
S
GR
GS
[0.75 0 0 0.75 305.25 219.75] CT
/Helvetica 16 F
GS
[1 0 0 1 0 0] CT
0 0 moveto 
1 -1 scale
(SBFGS) t 
GR
GR
GS
[0.75 0 0 0.75 346.5 213.75] CT
/Helvetica 12 F
GS
[1 0 0 1 0 0] CT
0 0 moveto 
1 -1 scale
(P) t 
GR
GR
GS
[0.75 0 0 0.75 0 0] CT
1 LJ
0.667 LW
N
374 284.292 M
404 284.292 L
S
GR
GS
[0.75 0 0 0.75 305.25 239.25] CT
/Helvetica 16 F
GS
[1 0 0 1 0 0] CT
0 0 moveto 
1 -1 scale
(SubBFGS) t 
GR
GR
GS
[0.75 0 0 0.75 360 233.25] CT
/Helvetica 12 F
GS
[1 0 0 1 0 0] CT
0 0 moveto 
1 -1 scale
(P) t 
GR
GR
GS
[0.75 0 0 0.75 0 0] CT
0 1 1 RC
1 LJ
0.667 LW
N
374 309.877 M
404 309.877 L
S
GR
GS
[0.75 0 0 0.75 305.25 250.46761] CT
/Helvetica 16.8 F
GS
[1 0 0 1 0 0] CT
0 7 moveto 
1 -1 scale
(BFGS) t 
GR
GR
GS
[0.75 0 0 0.75 0 0] CT
1 0 1 RC
1 LJ
0.667 LW
N
374 333.957 M
404 333.957 L
S
GR
GS
[0.75 0 0 0.75 0 0] CT
0.149 GC
10.0 ML
0.667 LW
N
370 347 M
370 196 L
494 196 L
494 347 L
cp
S
GR
%%Trailer
%%Pages: 1
%%EOF
