%!PS-Adobe-3.0 EPSF-3.0
%%Creator: (MATLAB, The Mathworks, Inc. Version 9.0.0.370719 \(R2016a\). Operating System: Windows 7)
%%Title: ./iter_setKnown_200maxiter.eps
%%CreationDate: 2018-08-15T16:13:51
%%Pages: (atend)
%%BoundingBox:     7     0   383   297
%%LanguageLevel: 3
%%EndComments
%%BeginProlog
%%BeginResource: procset (Apache XML Graphics Std ProcSet) 1.2 0
%%Version: 1.2 0
%%Copyright: (Copyright 2001-2003,2010 The Apache Software Foundation. License terms: http://www.apache.org/licenses/LICENSE-2.0)
/bd{bind def}bind def
/ld{load def}bd
/GR/grestore ld
/M/moveto ld
/LJ/setlinejoin ld
/C/curveto ld
/f/fill ld
/LW/setlinewidth ld
/GC/setgray ld
/t/show ld
/N/newpath ld
/CT/concat ld
/cp/closepath ld
/S/stroke ld
/L/lineto ld
/CC/setcmykcolor ld
/A/ashow ld
/GS/gsave ld
/RC/setrgbcolor ld
/RM/rmoveto ld
/ML/setmiterlimit ld
/re {4 2 roll M
1 index 0 rlineto
0 exch rlineto
neg 0 rlineto
cp } bd
/_ctm matrix def
/_tm matrix def
/BT { _ctm currentmatrix pop matrix _tm copy pop 0 0 moveto } bd
/ET { _ctm setmatrix } bd
/iTm { _ctm setmatrix _tm concat } bd
/Tm { _tm astore pop iTm 0 0 moveto } bd
/ux 0.0 def
/uy 0.0 def
/F {
  /Tp exch def
  /Tf exch def
  Tf findfont Tp scalefont setfont
  /cf Tf def  /cs Tp def
} bd
/ULS {currentpoint /uy exch def /ux exch def} bd
/ULE {
  /Tcx currentpoint pop def
  gsave
  newpath
  cf findfont cs scalefont dup
  /FontMatrix get 0 get /Ts exch def /FontInfo get dup
  /UnderlinePosition get Ts mul /To exch def
  /UnderlineThickness get Ts mul /Tt exch def
  ux uy To add moveto  Tcx uy To add lineto
  Tt setlinewidth stroke
  grestore
} bd
/OLE {
  /Tcx currentpoint pop def
  gsave
  newpath
  cf findfont cs scalefont dup
  /FontMatrix get 0 get /Ts exch def /FontInfo get dup
  /UnderlinePosition get Ts mul /To exch def
  /UnderlineThickness get Ts mul /Tt exch def
  ux uy To add cs add moveto Tcx uy To add cs add lineto
  Tt setlinewidth stroke
  grestore
} bd
/SOE {
  /Tcx currentpoint pop def
  gsave
  newpath
  cf findfont cs scalefont dup
  /FontMatrix get 0 get /Ts exch def /FontInfo get dup
  /UnderlinePosition get Ts mul /To exch def
  /UnderlineThickness get Ts mul /Tt exch def
  ux uy To add cs 10 mul 26 idiv add moveto Tcx uy To add cs 10 mul 26 idiv add lineto
  Tt setlinewidth stroke
  grestore
} bd
/QT {
/Y22 exch store
/X22 exch store
/Y21 exch store
/X21 exch store
currentpoint
/Y21 load 2 mul add 3 div exch
/X21 load 2 mul add 3 div exch
/X21 load 2 mul /X22 load add 3 div
/Y21 load 2 mul /Y22 load add 3 div
/X22 load /Y22 load curveto
} bd
/SSPD {
dup length /d exch dict def
{
/v exch def
/k exch def
currentpagedevice k known {
/cpdv currentpagedevice k get def
v cpdv ne {
/upd false def
/nullv v type /nulltype eq def
/nullcpdv cpdv type /nulltype eq def
nullv nullcpdv or
{
/upd true def
} {
/sametype v type cpdv type eq def
sametype {
v type /arraytype eq {
/vlen v length def
/cpdvlen cpdv length def
vlen cpdvlen eq {
0 1 vlen 1 sub {
/i exch def
/obj v i get def
/cpdobj cpdv i get def
obj cpdobj ne {
/upd true def
exit
} if
} for
} {
/upd true def
} ifelse
} {
v type /dicttype eq {
v {
/dv exch def
/dk exch def
/cpddv cpdv dk get def
dv cpddv ne {
/upd true def
exit
} if
} forall
} {
/upd true def
} ifelse
} ifelse
} if
} ifelse
upd true eq {
d k v put
} if
} if
} if
} forall
d length 0 gt {
d setpagedevice
} if
} bd
%%EndResource
%%BeginResource: procset (Apache XML Graphics EPS ProcSet) 1.0 0
%%Version: 1.0 0
%%Copyright: (Copyright 2002-2003 The Apache Software Foundation. License terms: http://www.apache.org/licenses/LICENSE-2.0)
/BeginEPSF { %def
/b4_Inc_state save def         % Save state for cleanup
/dict_count countdictstack def % Count objects on dict stack
/op_count count 1 sub def      % Count objects on operand stack
userdict begin                 % Push userdict on dict stack
/showpage { } def              % Redefine showpage, { } = null proc
0 setgray 0 setlinecap         % Prepare graphics state
1 setlinewidth 0 setlinejoin
10 setmiterlimit [ ] 0 setdash newpath
/languagelevel where           % If level not equal to 1 then
{pop languagelevel             % set strokeadjust and
1 ne                           % overprint to their defaults.
{false setstrokeadjust false setoverprint
} if
} if
} bd
/EndEPSF { %def
count op_count sub {pop} repeat            % Clean up stacks
countdictstack dict_count sub {end} repeat
b4_Inc_state restore
} bd
%%EndResource
%FOPBeginFontDict
%%IncludeResource: font Courier-Bold
%%IncludeResource: font Helvetica
%%IncludeResource: font Courier-BoldOblique
%%IncludeResource: font Courier-Oblique
%%IncludeResource: font Times-Roman
%%IncludeResource: font Helvetica-BoldOblique
%%IncludeResource: font Helvetica-Bold
%%IncludeResource: font Helvetica-Oblique
%%IncludeResource: font Times-BoldItalic
%%IncludeResource: font Courier
%%IncludeResource: font Times-Italic
%%IncludeResource: font Times-Bold
%%IncludeResource: font Symbol
%%IncludeResource: font ZapfDingbats
%FOPEndFontDict
%%BeginResource: encoding WinAnsiEncoding
/WinAnsiEncoding [
/.notdef /.notdef /.notdef /.notdef /.notdef
/.notdef /.notdef /.notdef /.notdef /.notdef
/.notdef /.notdef /.notdef /.notdef /.notdef
/.notdef /.notdef /.notdef /.notdef /.notdef
/.notdef /.notdef /.notdef /.notdef /.notdef
/.notdef /.notdef /.notdef /.notdef /.notdef
/.notdef /.notdef /space /exclam /quotedbl
/numbersign /dollar /percent /ampersand /quotesingle
/parenleft /parenright /asterisk /plus /comma
/hyphen /period /slash /zero /one
/two /three /four /five /six
/seven /eight /nine /colon /semicolon
/less /equal /greater /question /at
/A /B /C /D /E
/F /G /H /I /J
/K /L /M /N /O
/P /Q /R /S /T
/U /V /W /X /Y
/Z /bracketleft /backslash /bracketright /asciicircum
/underscore /quoteleft /a /b /c
/d /e /f /g /h
/i /j /k /l /m
/n /o /p /q /r
/s /t /u /v /w
/x /y /z /braceleft /bar
/braceright /asciitilde /bullet /Euro /bullet
/quotesinglbase /florin /quotedblbase /ellipsis /dagger
/daggerdbl /circumflex /perthousand /Scaron /guilsinglleft
/OE /bullet /Zcaron /bullet /bullet
/quoteleft /quoteright /quotedblleft /quotedblright /bullet
/endash /emdash /asciitilde /trademark /scaron
/guilsinglright /oe /bullet /zcaron /Ydieresis
/space /exclamdown /cent /sterling /currency
/yen /brokenbar /section /dieresis /copyright
/ordfeminine /guillemotleft /logicalnot /sfthyphen /registered
/macron /degree /plusminus /twosuperior /threesuperior
/acute /mu /paragraph /middot /cedilla
/onesuperior /ordmasculine /guillemotright /onequarter /onehalf
/threequarters /questiondown /Agrave /Aacute /Acircumflex
/Atilde /Adieresis /Aring /AE /Ccedilla
/Egrave /Eacute /Ecircumflex /Edieresis /Igrave
/Iacute /Icircumflex /Idieresis /Eth /Ntilde
/Ograve /Oacute /Ocircumflex /Otilde /Odieresis
/multiply /Oslash /Ugrave /Uacute /Ucircumflex
/Udieresis /Yacute /Thorn /germandbls /agrave
/aacute /acircumflex /atilde /adieresis /aring
/ae /ccedilla /egrave /eacute /ecircumflex
/edieresis /igrave /iacute /icircumflex /idieresis
/eth /ntilde /ograve /oacute /ocircumflex
/otilde /odieresis /divide /oslash /ugrave
/uacute /ucircumflex /udieresis /yacute /thorn
/ydieresis
] def
%%EndResource
%FOPBeginFontReencode
/Courier-Bold findfont
dup length dict begin
  {1 index /FID ne {def} {pop pop} ifelse} forall
  /Encoding WinAnsiEncoding def
  currentdict
end
/Courier-Bold exch definefont pop
/Helvetica findfont
dup length dict begin
  {1 index /FID ne {def} {pop pop} ifelse} forall
  /Encoding WinAnsiEncoding def
  currentdict
end
/Helvetica exch definefont pop
/Courier-BoldOblique findfont
dup length dict begin
  {1 index /FID ne {def} {pop pop} ifelse} forall
  /Encoding WinAnsiEncoding def
  currentdict
end
/Courier-BoldOblique exch definefont pop
/Courier-Oblique findfont
dup length dict begin
  {1 index /FID ne {def} {pop pop} ifelse} forall
  /Encoding WinAnsiEncoding def
  currentdict
end
/Courier-Oblique exch definefont pop
/Times-Roman findfont
dup length dict begin
  {1 index /FID ne {def} {pop pop} ifelse} forall
  /Encoding WinAnsiEncoding def
  currentdict
end
/Times-Roman exch definefont pop
/Helvetica-BoldOblique findfont
dup length dict begin
  {1 index /FID ne {def} {pop pop} ifelse} forall
  /Encoding WinAnsiEncoding def
  currentdict
end
/Helvetica-BoldOblique exch definefont pop
/Helvetica-Bold findfont
dup length dict begin
  {1 index /FID ne {def} {pop pop} ifelse} forall
  /Encoding WinAnsiEncoding def
  currentdict
end
/Helvetica-Bold exch definefont pop
/Helvetica-Oblique findfont
dup length dict begin
  {1 index /FID ne {def} {pop pop} ifelse} forall
  /Encoding WinAnsiEncoding def
  currentdict
end
/Helvetica-Oblique exch definefont pop
/Times-BoldItalic findfont
dup length dict begin
  {1 index /FID ne {def} {pop pop} ifelse} forall
  /Encoding WinAnsiEncoding def
  currentdict
end
/Times-BoldItalic exch definefont pop
/Courier findfont
dup length dict begin
  {1 index /FID ne {def} {pop pop} ifelse} forall
  /Encoding WinAnsiEncoding def
  currentdict
end
/Courier exch definefont pop
/Times-Italic findfont
dup length dict begin
  {1 index /FID ne {def} {pop pop} ifelse} forall
  /Encoding WinAnsiEncoding def
  currentdict
end
/Times-Italic exch definefont pop
/Times-Bold findfont
dup length dict begin
  {1 index /FID ne {def} {pop pop} ifelse} forall
  /Encoding WinAnsiEncoding def
  currentdict
end
/Times-Bold exch definefont pop
%FOPEndFontReencode
%%EndProlog
%%Page: 1 1
%%PageBoundingBox: 0 0 420 315
%%BeginPageSetup
[1 0 0 -1 0 315] CT
%%EndPageSetup
GS
[0.75 0 0 0.75 0 0] CT
1 GC
N
0 0 560 420 re
f
GR
GS
[0.75 0 0 0.75 0 0] CT
1 GC
N
0 0 560 420 re
f
GR
GS
[0.75 0 0 0.75 0 0] CT
1 GC
N
73 360 M
507 360 L
507 31 L
73 31 L
cp
f
GR
GS
[0.75 0 0 0.75 0 0] CT
0.149 GC
2 setlinecap
1 LJ
0.667 LW
N
73 360 M
507 360 L
S
GR
GS
[0.75 0 0 0.75 0 0] CT
0.149 GC
2 setlinecap
1 LJ
0.667 LW
N
73 31 M
507 31 L
S
GR
GS
[0.75 0 0 0.75 0 0] CT
0.149 GC
2 setlinecap
1 LJ
0.667 LW
N
172.943 360 M
172.943 355.66 L
S
GR
GS
[0.75 0 0 0.75 0 0] CT
0.149 GC
2 setlinecap
1 LJ
0.667 LW
N
283.99 360 M
283.99 355.66 L
S
GR
GS
[0.75 0 0 0.75 0 0] CT
0.149 GC
2 setlinecap
1 LJ
0.667 LW
N
395.037 360 M
395.037 355.66 L
S
GR
GS
[0.75 0 0 0.75 0 0] CT
0.149 GC
2 setlinecap
1 LJ
0.667 LW
N
506.085 360 M
506.085 355.66 L
S
GR
GS
[0.75 0 0 0.75 0 0] CT
0.149 GC
2 setlinecap
1 LJ
0.667 LW
N
172.943 31 M
172.943 35.34 L
S
GR
GS
[0.75 0 0 0.75 0 0] CT
0.149 GC
2 setlinecap
1 LJ
0.667 LW
N
283.99 31 M
283.99 35.34 L
S
GR
GS
[0.75 0 0 0.75 0 0] CT
0.149 GC
2 setlinecap
1 LJ
0.667 LW
N
395.037 31 M
395.037 35.34 L
S
GR
GS
[0.75 0 0 0.75 0 0] CT
0.149 GC
2 setlinecap
1 LJ
0.667 LW
N
506.085 31 M
506.085 35.34 L
S
GR
GS
[0.75 0 0 0.75 129.70698 274.8] CT
0.149 GC
/Helvetica 18.667 F
GS
[1 0 0 1 0 0] CT
-5.5 20 moveto 
1 -1 scale
(1) t 
GR
GR
GS
[0.75 0 0 0.75 212.99252 274.8] CT
0.149 GC
/Helvetica 18.667 F
GS
[1 0 0 1 0 0] CT
-5.5 20 moveto 
1 -1 scale
(2) t 
GR
GR
GS
[0.75 0 0 0.75 296.27804 274.8] CT
0.149 GC
/Helvetica 18.667 F
GS
[1 0 0 1 0 0] CT
-5.5 20 moveto 
1 -1 scale
(3) t 
GR
GR
GS
[0.75 0 0 0.75 379.56358 274.8] CT
0.149 GC
/Helvetica 18.667 F
GS
[1 0 0 1 0 0] CT
-5.5 20 moveto 
1 -1 scale
(4) t 
GR
GR
GS
[0.75 0 0 0.75 217.50014 294.75] CT
0.149 GC
/Helvetica 20.533 F
GS
[1 0 0 1 0 0] CT
-111.5 22 moveto 
1 -1 scale
(log2 - Ratio of Iterations) t 
GR
GR
GS
[0.75 0 0 0.75 0 0] CT
0.149 GC
2 setlinecap
1 LJ
0.667 LW
N
73 360 M
73 31 L
S
GR
GS
[0.75 0 0 0.75 0 0] CT
0.149 GC
2 setlinecap
1 LJ
0.667 LW
N
507 360 M
507 31 L
S
GR
GS
[0.75 0 0 0.75 0 0] CT
0.149 GC
2 setlinecap
1 LJ
0.667 LW
N
73 360 M
77.34 360 L
S
GR
GS
[0.75 0 0 0.75 0 0] CT
0.149 GC
2 setlinecap
1 LJ
0.667 LW
N
73 294.2 M
77.34 294.2 L
S
GR
GS
[0.75 0 0 0.75 0 0] CT
0.149 GC
2 setlinecap
1 LJ
0.667 LW
N
73 228.4 M
77.34 228.4 L
S
GR
GS
[0.75 0 0 0.75 0 0] CT
0.149 GC
2 setlinecap
1 LJ
0.667 LW
N
73 162.6 M
77.34 162.6 L
S
GR
GS
[0.75 0 0 0.75 0 0] CT
0.149 GC
2 setlinecap
1 LJ
0.667 LW
N
73 96.8 M
77.34 96.8 L
S
GR
GS
[0.75 0 0 0.75 0 0] CT
0.149 GC
2 setlinecap
1 LJ
0.667 LW
N
73 31 M
77.34 31 L
S
GR
GS
[0.75 0 0 0.75 0 0] CT
0.149 GC
2 setlinecap
1 LJ
0.667 LW
N
507 360 M
502.66 360 L
S
GR
GS
[0.75 0 0 0.75 0 0] CT
0.149 GC
2 setlinecap
1 LJ
0.667 LW
N
507 294.2 M
502.66 294.2 L
S
GR
GS
[0.75 0 0 0.75 0 0] CT
0.149 GC
2 setlinecap
1 LJ
0.667 LW
N
507 228.4 M
502.66 228.4 L
S
GR
GS
[0.75 0 0 0.75 0 0] CT
0.149 GC
2 setlinecap
1 LJ
0.667 LW
N
507 162.6 M
502.66 162.6 L
S
GR
GS
[0.75 0 0 0.75 0 0] CT
0.149 GC
2 setlinecap
1 LJ
0.667 LW
N
507 96.8 M
502.66 96.8 L
S
GR
GS
[0.75 0 0 0.75 0 0] CT
0.149 GC
2 setlinecap
1 LJ
0.667 LW
N
507 31 M
502.66 31 L
S
GR
GS
[0.75 0 0 0.75 49.95 270] CT
0.149 GC
/Helvetica 18.667 F
GS
[1 0 0 1 0 0] CT
-11 7.5 moveto 
1 -1 scale
(0) t 
GR
GR
GS
[0.75 0 0 0.75 49.95 220.65001] CT
0.149 GC
/Helvetica 18.667 F
GS
[1 0 0 1 0 0] CT
-22 7.5 moveto 
1 -1 scale
(20) t 
GR
GR
GS
[0.75 0 0 0.75 49.95 171.3] CT
0.149 GC
/Helvetica 18.667 F
GS
[1 0 0 1 0 0] CT
-22 7.5 moveto 
1 -1 scale
(40) t 
GR
GR
GS
[0.75 0 0 0.75 49.95 121.95] CT
0.149 GC
/Helvetica 18.667 F
GS
[1 0 0 1 0 0] CT
-22 7.5 moveto 
1 -1 scale
(60) t 
GR
GR
GS
[0.75 0 0 0.75 49.95 72.6] CT
0.149 GC
/Helvetica 18.667 F
GS
[1 0 0 1 0 0] CT
-22 7.5 moveto 
1 -1 scale
(80) t 
GR
GR
GS
[0.75 0 0 0.75 49.95 23.25] CT
0.149 GC
/Helvetica 18.667 F
GS
[1 0 0 1 0 0] CT
-32 7.5 moveto 
1 -1 scale
(100) t 
GR
GR
GS
[0 -0.75 0.75 0 22.95 146.62489] CT
0.149 GC
/Helvetica 20.533 F
GS
[1 0 0 1 0 0] CT
-57 -5 moveto 
1 -1 scale
(% Problems) t 
GR
GR
GS
[0.75 0 0 0.75 0 0] CT
0 0 1 RC
1 LJ
0.667 LW
N
72.957 74.453 M
81.947 74.453 L
81.947 68.245 L
95.749 68.245 L
95.749 62.038 L
96.726 62.038 L
96.726 55.83 L
111.584 55.83 L
111.584 49.623 L
126.854 49.623 L
126.854 43.415 L
367.818 43.415 L
367.818 37.208 L
507.043 37.208 L
S
GR
GS
[0.75 0 0 0.75 0 0] CT
1 0 0 RC
1 LJ
0.667 LW
N
72.957 347.585 M
83.288 347.585 L
83.288 341.377 L
83.288 341.377 L
83.288 335.17 L
87.932 335.17 L
87.932 328.962 L
91.105 328.962 L
91.105 322.755 L
93.255 322.755 L
93.255 316.547 L
95.494 316.547 L
95.494 310.34 L
99.163 310.34 L
99.163 304.132 L
112.914 304.132 L
112.914 297.925 L
126.854 297.925 L
126.854 291.717 L
134.307 291.717 L
134.307 285.509 L
137.193 285.509 L
137.193 279.302 L
140.794 279.302 L
140.794 273.094 L
141.837 273.094 L
141.837 266.887 L
143.733 266.887 L
143.733 260.679 L
143.733 260.679 L
143.733 254.472 L
146.906 254.472 L
146.906 248.264 L
172.943 248.264 L
172.943 242.057 L
172.943 242.057 L
172.943 235.849 L
181.605 235.849 L
181.605 229.642 L
182.655 229.642 L
182.655 223.434 L
183.51 223.434 L
183.51 217.226 L
184.994 217.226 L
184.994 211.019 L
186.489 211.019 L
186.489 204.811 L
191.812 204.811 L
191.812 198.604 L
201.288 198.604 L
201.288 192.396 L
208.692 192.396 L
208.692 186.189 L
219.031 186.189 L
219.031 179.981 L
232.47 179.981 L
232.47 173.774 L
237.901 173.774 L
237.901 167.566 L
248.241 167.566 L
248.241 161.358 L
283.99 161.358 L
283.99 155.151 L
294.33 155.151 L
294.33 148.943 L
311.155 148.943 L
311.155 142.736 L
313.805 142.736 L
313.805 136.528 L
405.924 136.528 L
405.924 130.321 L
422.569 130.321 L
422.569 124.113 L
426.731 124.113 L
426.731 117.906 L
426.731 117.906 L
426.731 111.698 L
430.787 111.698 L
430.787 105.491 L
507.043 105.491 L
S
GR
GS
[0.75 0 0 0.75 0 0] CT
0 1 0 RC
1 LJ
0.667 LW
N
72.957 291.717 M
76.694 291.717 L
76.694 285.509 L
82.375 285.509 L
82.375 279.302 L
83.288 279.302 L
83.288 273.094 L
83.288 273.094 L
83.288 266.887 L
87.932 266.887 L
87.932 260.679 L
87.932 260.679 L
87.932 254.472 L
91.105 254.472 L
91.105 248.264 L
100.168 248.264 L
100.168 242.057 L
105.461 242.057 L
105.461 235.849 L
107.984 235.849 L
107.984 229.642 L
109.974 229.642 L
109.974 223.434 L
111.584 223.434 L
111.584 217.226 L
112.914 217.226 L
112.914 211.019 L
112.914 211.019 L
112.914 204.811 L
113.307 204.811 L
113.307 198.604 L
115.801 198.604 L
115.801 192.396 L
119.037 192.396 L
119.037 186.189 L
120.808 186.189 L
120.808 179.981 L
126.854 179.981 L
126.854 173.774 L
141.837 173.774 L
141.837 167.566 L
143.733 167.566 L
143.733 161.358 L
143.733 161.358 L
143.733 155.151 L
146.906 155.151 L
146.906 148.943 L
149.456 148.943 L
149.456 142.736 L
172.943 142.736 L
172.943 136.528 L
172.943 136.528 L
172.943 130.321 L
172.943 130.321 L
172.943 124.113 L
175.591 124.113 L
175.591 117.906 L
180.064 117.906 L
180.064 111.698 L
182.655 111.698 L
182.655 105.491 L
184.529 105.491 L
184.529 99.283 L
197.639 99.283 L
197.639 93.075 L
200.875 93.075 L
200.875 86.868 L
208.692 86.868 L
208.692 80.66 L
223.961 80.66 L
223.961 74.453 L
223.961 74.453 L
223.961 68.245 L
226.848 68.245 L
226.848 62.038 L
237.901 62.038 L
237.901 55.83 L
273.65 55.83 L
273.65 49.623 L
302.86 49.623 L
302.86 43.415 L
507.043 43.415 L
S
GR
GS
[0.75 0 0 0.75 0 0] CT
1 LJ
0.667 LW
N
72.957 304.132 M
73.552 304.132 L
73.552 297.925 L
80.765 297.925 L
80.765 291.717 L
82.375 291.717 L
82.375 285.509 L
91.105 285.509 L
91.105 279.302 L
103.595 279.302 L
103.595 273.094 L
103.928 273.094 L
103.928 266.887 L
107.984 266.887 L
107.984 260.679 L
110.323 260.679 L
110.323 254.472 L
117.141 254.472 L
117.141 248.264 L
123.253 248.264 L
123.253 242.057 L
126.854 242.057 L
126.854 235.849 L
129.64 235.849 L
129.64 229.642 L
135.516 229.642 L
135.516 223.434 L
139.677 223.434 L
139.677 217.226 L
140.794 217.226 L
140.794 211.019 L
143.733 211.019 L
143.733 204.811 L
154.073 204.811 L
154.073 198.604 L
156.063 198.604 L
156.063 192.396 L
162.298 192.396 L
162.298 186.189 L
172.943 186.189 L
172.943 179.981 L
180.513 179.981 L
180.513 173.774 L
183.996 173.774 L
183.996 167.566 L
190.621 167.566 L
190.621 161.358 L
191.812 161.358 L
191.812 155.151 L
198.979 155.151 L
198.979 148.943 L
204.636 148.943 L
204.636 142.736 L
219.031 142.736 L
219.031 136.528 L
221.022 136.528 L
221.022 130.321 L
237.901 130.321 L
237.901 124.113 L
249.349 124.113 L
249.349 117.906 L
261.064 117.906 L
261.064 111.698 L
276.537 111.698 L
276.537 105.491 L
283.99 105.491 L
283.99 99.283 L
291.112 99.283 L
291.112 93.075 L
302.084 93.075 L
302.084 86.868 L
407.089 86.868 L
407.089 80.66 L
413.907 80.66 L
413.907 74.453 L
422.569 74.453 L
422.569 68.245 L
426.731 68.245 L
426.731 62.038 L
430.787 62.038 L
430.787 55.83 L
507.043 55.83 L
S
GR
GS
[0.75 0 0 0.75 0 0] CT
0 1 1 RC
1 LJ
0.667 LW
N
72.957 242.057 M
73.768 242.057 L
73.768 235.849 L
76.694 235.849 L
76.694 229.642 L
78.202 229.642 L
78.202 223.434 L
83.288 223.434 L
83.288 217.226 L
83.288 217.226 L
83.288 211.019 L
88.659 211.019 L
88.659 204.811 L
91.105 204.811 L
91.105 198.604 L
94.044 198.604 L
94.044 192.396 L
100.531 192.396 L
100.531 186.189 L
110.323 186.189 L
110.323 179.981 L
111.584 179.981 L
111.584 173.774 L
111.584 173.774 L
111.584 167.566 L
115.801 167.566 L
115.801 161.358 L
117.141 161.358 L
117.141 155.151 L
120.035 155.151 L
120.035 148.943 L
126.854 148.943 L
126.854 142.736 L
133.394 142.736 L
133.394 136.528 L
143.733 136.528 L
143.733 130.321 L
163.314 130.321 L
163.314 124.113 L
163.785 124.113 L
163.785 117.906 L
167.116 117.906 L
167.116 111.698 L
191.812 111.698 L
191.812 105.491 L
197.639 105.491 L
197.639 99.283 L
200.474 99.283 L
200.474 93.075 L
208.692 93.075 L
208.692 86.868 L
223.961 86.868 L
223.961 80.66 L
223.961 80.66 L
223.961 74.453 L
235.209 74.453 L
235.209 68.245 L
237.901 68.245 L
237.901 62.038 L
246.563 62.038 L
246.563 55.83 L
273.65 55.83 L
273.65 49.623 L
304.47 49.623 L
304.47 43.415 L
466.536 43.415 L
466.536 37.208 L
507.043 37.208 L
S
GR
GS
[0.75 0 0 0.75 0 0] CT
1 0 1 RC
1 LJ
0.667 LW
N
72.957 316.547 M
102.158 316.547 L
102.158 310.34 L
107.984 310.34 L
107.984 304.132 L
111.584 304.132 L
111.584 297.925 L
126.854 297.925 L
126.854 291.717 L
139.344 291.717 L
139.344 285.509 L
140.794 285.509 L
140.794 279.302 L
141.837 279.302 L
141.837 273.094 L
146.906 273.094 L
146.906 266.887 L
156.063 266.887 L
156.063 260.679 L
159.003 260.679 L
159.003 254.472 L
172.943 254.472 L
172.943 248.264 L
172.943 248.264 L
172.943 242.057 L
172.943 242.057 L
172.943 235.849 L
172.943 235.849 L
172.943 229.642 L
197.639 229.642 L
197.639 223.434 L
204.636 223.434 L
204.636 217.226 L
217.849 217.226 L
217.849 211.019 L
221.022 211.019 L
221.022 204.811 L
225.571 204.811 L
225.571 198.604 L
247.673 198.604 L
247.673 192.396 L
248.241 192.396 L
248.241 186.189 L
249.349 186.189 L
249.349 179.981 L
256.771 179.981 L
256.771 173.774 L
261.064 173.774 L
261.064 167.566 L
270.05 167.566 L
270.05 161.358 L
292.469 161.358 L
292.469 155.151 L
301.233 155.151 L
301.233 148.943 L
303.705 148.943 L
303.705 142.736 L
322.626 142.736 L
322.626 136.528 L
335.009 136.528 L
335.009 130.321 L
422.569 130.321 L
422.569 124.113 L
430.787 124.113 L
430.787 117.906 L
434.743 117.906 L
434.743 111.698 L
507.043 111.698 L
S
GR
GS
[0.75 0 0 0.75 0 0] CT
1 GC
N
370 347 M
370 196 L
494 196 L
494 347 L
cp
f
GR
GS
[0.75 0 0 0.75 305.25 156.7824] CT
/Helvetica 16.8 F
GS
[1 0 0 1 0 0] CT
0 7 moveto 
1 -1 scale
(Hes) t 
GR
GR
GS
[0.75 0 0 0.75 0 0] CT
0 0 1 RC
1 LJ
0.667 LW
N
374 209.043 M
404 209.043 L
S
GR
GS
[0.75 0 0 0.75 305.25 181.5] CT
/Helvetica 16 F
GS
[1 0 0 1 0 0] CT
0 0 moveto 
1 -1 scale
(SBFGS) t 
GR
GR
GS
[0.75 0 0 0.75 346.5 175.5] CT
/Helvetica 12 F
GS
[1 0 0 1 0 0] CT
0 0 moveto 
1 -1 scale
(M) t 
GR
GR
GS
[0.75 0 0 0.75 0 0] CT
1 0 0 RC
1 LJ
0.667 LW
N
374 233.123 M
404 233.123 L
S
GR
GS
[0.75 0 0 0.75 305.25 201] CT
/Helvetica 16 F
GS
[1 0 0 1 0 0] CT
0 0 moveto 
1 -1 scale
(SubBFGS) t 
GR
GR
GS
[0.75 0 0 0.75 360 195] CT
/Helvetica 12 F
GS
[1 0 0 1 0 0] CT
0 0 moveto 
1 -1 scale
(M) t 
GR
GR
GS
[0.75 0 0 0.75 0 0] CT
0 1 0 RC
1 LJ
0.667 LW
N
374 258.708 M
404 258.708 L
S
GR
GS
[0.75 0 0 0.75 305.25 219.75] CT
/Helvetica 16 F
GS
[1 0 0 1 0 0] CT
0 0 moveto 
1 -1 scale
(SBFGS) t 
GR
GR
GS
[0.75 0 0 0.75 346.5 213.75] CT
/Helvetica 12 F
GS
[1 0 0 1 0 0] CT
0 0 moveto 
1 -1 scale
(P) t 
GR
GR
GS
[0.75 0 0 0.75 0 0] CT
1 LJ
0.667 LW
N
374 284.292 M
404 284.292 L
S
GR
GS
[0.75 0 0 0.75 305.25 239.25] CT
/Helvetica 16 F
GS
[1 0 0 1 0 0] CT
0 0 moveto 
1 -1 scale
(SubBFGS) t 
GR
GR
GS
[0.75 0 0 0.75 360 233.25] CT
/Helvetica 12 F
GS
[1 0 0 1 0 0] CT
0 0 moveto 
1 -1 scale
(P) t 
GR
GR
GS
[0.75 0 0 0.75 0 0] CT
0 1 1 RC
1 LJ
0.667 LW
N
374 309.877 M
404 309.877 L
S
GR
GS
[0.75 0 0 0.75 305.25 250.46761] CT
/Helvetica 16.8 F
GS
[1 0 0 1 0 0] CT
0 7 moveto 
1 -1 scale
(BFGS) t 
GR
GR
GS
[0.75 0 0 0.75 0 0] CT
1 0 1 RC
1 LJ
0.667 LW
N
374 333.957 M
404 333.957 L
S
GR
GS
[0.75 0 0 0.75 0 0] CT
0.149 GC
10.0 ML
0.667 LW
N
370 347 M
370 196 L
494 196 L
494 347 L
cp
S
GR
%%Trailer
%%Pages: 1
%%EOF
