%!PS-Adobe-3.0 EPSF-3.0
%%Creator: (MATLAB, The Mathworks, Inc. Version 9.0.0.370719 \(R2016a\). Operating System: Windows 7)
%%Title: ./efun_subbfgs_1000maxiter.eps
%%CreationDate: 2018-08-15T16:17:31
%%Pages: (atend)
%%BoundingBox:     7     0   381   297
%%LanguageLevel: 3
%%EndComments
%%BeginProlog
%%BeginResource: procset (Apache XML Graphics Std ProcSet) 1.2 0
%%Version: 1.2 0
%%Copyright: (Copyright 2001-2003,2010 The Apache Software Foundation. License terms: http://www.apache.org/licenses/LICENSE-2.0)
/bd{bind def}bind def
/ld{load def}bd
/GR/grestore ld
/M/moveto ld
/LJ/setlinejoin ld
/C/curveto ld
/f/fill ld
/LW/setlinewidth ld
/GC/setgray ld
/t/show ld
/N/newpath ld
/CT/concat ld
/cp/closepath ld
/S/stroke ld
/L/lineto ld
/CC/setcmykcolor ld
/A/ashow ld
/GS/gsave ld
/RC/setrgbcolor ld
/RM/rmoveto ld
/ML/setmiterlimit ld
/re {4 2 roll M
1 index 0 rlineto
0 exch rlineto
neg 0 rlineto
cp } bd
/_ctm matrix def
/_tm matrix def
/BT { _ctm currentmatrix pop matrix _tm copy pop 0 0 moveto } bd
/ET { _ctm setmatrix } bd
/iTm { _ctm setmatrix _tm concat } bd
/Tm { _tm astore pop iTm 0 0 moveto } bd
/ux 0.0 def
/uy 0.0 def
/F {
  /Tp exch def
  /Tf exch def
  Tf findfont Tp scalefont setfont
  /cf Tf def  /cs Tp def
} bd
/ULS {currentpoint /uy exch def /ux exch def} bd
/ULE {
  /Tcx currentpoint pop def
  gsave
  newpath
  cf findfont cs scalefont dup
  /FontMatrix get 0 get /Ts exch def /FontInfo get dup
  /UnderlinePosition get Ts mul /To exch def
  /UnderlineThickness get Ts mul /Tt exch def
  ux uy To add moveto  Tcx uy To add lineto
  Tt setlinewidth stroke
  grestore
} bd
/OLE {
  /Tcx currentpoint pop def
  gsave
  newpath
  cf findfont cs scalefont dup
  /FontMatrix get 0 get /Ts exch def /FontInfo get dup
  /UnderlinePosition get Ts mul /To exch def
  /UnderlineThickness get Ts mul /Tt exch def
  ux uy To add cs add moveto Tcx uy To add cs add lineto
  Tt setlinewidth stroke
  grestore
} bd
/SOE {
  /Tcx currentpoint pop def
  gsave
  newpath
  cf findfont cs scalefont dup
  /FontMatrix get 0 get /Ts exch def /FontInfo get dup
  /UnderlinePosition get Ts mul /To exch def
  /UnderlineThickness get Ts mul /Tt exch def
  ux uy To add cs 10 mul 26 idiv add moveto Tcx uy To add cs 10 mul 26 idiv add lineto
  Tt setlinewidth stroke
  grestore
} bd
/QT {
/Y22 exch store
/X22 exch store
/Y21 exch store
/X21 exch store
currentpoint
/Y21 load 2 mul add 3 div exch
/X21 load 2 mul add 3 div exch
/X21 load 2 mul /X22 load add 3 div
/Y21 load 2 mul /Y22 load add 3 div
/X22 load /Y22 load curveto
} bd
/SSPD {
dup length /d exch dict def
{
/v exch def
/k exch def
currentpagedevice k known {
/cpdv currentpagedevice k get def
v cpdv ne {
/upd false def
/nullv v type /nulltype eq def
/nullcpdv cpdv type /nulltype eq def
nullv nullcpdv or
{
/upd true def
} {
/sametype v type cpdv type eq def
sametype {
v type /arraytype eq {
/vlen v length def
/cpdvlen cpdv length def
vlen cpdvlen eq {
0 1 vlen 1 sub {
/i exch def
/obj v i get def
/cpdobj cpdv i get def
obj cpdobj ne {
/upd true def
exit
} if
} for
} {
/upd true def
} ifelse
} {
v type /dicttype eq {
v {
/dv exch def
/dk exch def
/cpddv cpdv dk get def
dv cpddv ne {
/upd true def
exit
} if
} forall
} {
/upd true def
} ifelse
} ifelse
} if
} ifelse
upd true eq {
d k v put
} if
} if
} if
} forall
d length 0 gt {
d setpagedevice
} if
} bd
%%EndResource
%%BeginResource: procset (Apache XML Graphics EPS ProcSet) 1.0 0
%%Version: 1.0 0
%%Copyright: (Copyright 2002-2003 The Apache Software Foundation. License terms: http://www.apache.org/licenses/LICENSE-2.0)
/BeginEPSF { %def
/b4_Inc_state save def         % Save state for cleanup
/dict_count countdictstack def % Count objects on dict stack
/op_count count 1 sub def      % Count objects on operand stack
userdict begin                 % Push userdict on dict stack
/showpage { } def              % Redefine showpage, { } = null proc
0 setgray 0 setlinecap         % Prepare graphics state
1 setlinewidth 0 setlinejoin
10 setmiterlimit [ ] 0 setdash newpath
/languagelevel where           % If level not equal to 1 then
{pop languagelevel             % set strokeadjust and
1 ne                           % overprint to their defaults.
{false setstrokeadjust false setoverprint
} if
} if
} bd
/EndEPSF { %def
count op_count sub {pop} repeat            % Clean up stacks
countdictstack dict_count sub {end} repeat
b4_Inc_state restore
} bd
%%EndResource
%FOPBeginFontDict
%%IncludeResource: font Courier-Bold
%%IncludeResource: font Helvetica
%%IncludeResource: font Courier-BoldOblique
%%IncludeResource: font Courier-Oblique
%%IncludeResource: font Times-Roman
%%IncludeResource: font Helvetica-BoldOblique
%%IncludeResource: font Helvetica-Bold
%%IncludeResource: font Helvetica-Oblique
%%IncludeResource: font Times-BoldItalic
%%IncludeResource: font Courier
%%IncludeResource: font Times-Italic
%%IncludeResource: font Times-Bold
%%IncludeResource: font Symbol
%%IncludeResource: font ZapfDingbats
%FOPEndFontDict
%%BeginResource: encoding WinAnsiEncoding
/WinAnsiEncoding [
/.notdef /.notdef /.notdef /.notdef /.notdef
/.notdef /.notdef /.notdef /.notdef /.notdef
/.notdef /.notdef /.notdef /.notdef /.notdef
/.notdef /.notdef /.notdef /.notdef /.notdef
/.notdef /.notdef /.notdef /.notdef /.notdef
/.notdef /.notdef /.notdef /.notdef /.notdef
/.notdef /.notdef /space /exclam /quotedbl
/numbersign /dollar /percent /ampersand /quotesingle
/parenleft /parenright /asterisk /plus /comma
/hyphen /period /slash /zero /one
/two /three /four /five /six
/seven /eight /nine /colon /semicolon
/less /equal /greater /question /at
/A /B /C /D /E
/F /G /H /I /J
/K /L /M /N /O
/P /Q /R /S /T
/U /V /W /X /Y
/Z /bracketleft /backslash /bracketright /asciicircum
/underscore /quoteleft /a /b /c
/d /e /f /g /h
/i /j /k /l /m
/n /o /p /q /r
/s /t /u /v /w
/x /y /z /braceleft /bar
/braceright /asciitilde /bullet /Euro /bullet
/quotesinglbase /florin /quotedblbase /ellipsis /dagger
/daggerdbl /circumflex /perthousand /Scaron /guilsinglleft
/OE /bullet /Zcaron /bullet /bullet
/quoteleft /quoteright /quotedblleft /quotedblright /bullet
/endash /emdash /asciitilde /trademark /scaron
/guilsinglright /oe /bullet /zcaron /Ydieresis
/space /exclamdown /cent /sterling /currency
/yen /brokenbar /section /dieresis /copyright
/ordfeminine /guillemotleft /logicalnot /sfthyphen /registered
/macron /degree /plusminus /twosuperior /threesuperior
/acute /mu /paragraph /middot /cedilla
/onesuperior /ordmasculine /guillemotright /onequarter /onehalf
/threequarters /questiondown /Agrave /Aacute /Acircumflex
/Atilde /Adieresis /Aring /AE /Ccedilla
/Egrave /Eacute /Ecircumflex /Edieresis /Igrave
/Iacute /Icircumflex /Idieresis /Eth /Ntilde
/Ograve /Oacute /Ocircumflex /Otilde /Odieresis
/multiply /Oslash /Ugrave /Uacute /Ucircumflex
/Udieresis /Yacute /Thorn /germandbls /agrave
/aacute /acircumflex /atilde /adieresis /aring
/ae /ccedilla /egrave /eacute /ecircumflex
/edieresis /igrave /iacute /icircumflex /idieresis
/eth /ntilde /ograve /oacute /ocircumflex
/otilde /odieresis /divide /oslash /ugrave
/uacute /ucircumflex /udieresis /yacute /thorn
/ydieresis
] def
%%EndResource
%FOPBeginFontReencode
/Courier-Bold findfont
dup length dict begin
  {1 index /FID ne {def} {pop pop} ifelse} forall
  /Encoding WinAnsiEncoding def
  currentdict
end
/Courier-Bold exch definefont pop
/Helvetica findfont
dup length dict begin
  {1 index /FID ne {def} {pop pop} ifelse} forall
  /Encoding WinAnsiEncoding def
  currentdict
end
/Helvetica exch definefont pop
/Courier-BoldOblique findfont
dup length dict begin
  {1 index /FID ne {def} {pop pop} ifelse} forall
  /Encoding WinAnsiEncoding def
  currentdict
end
/Courier-BoldOblique exch definefont pop
/Courier-Oblique findfont
dup length dict begin
  {1 index /FID ne {def} {pop pop} ifelse} forall
  /Encoding WinAnsiEncoding def
  currentdict
end
/Courier-Oblique exch definefont pop
/Times-Roman findfont
dup length dict begin
  {1 index /FID ne {def} {pop pop} ifelse} forall
  /Encoding WinAnsiEncoding def
  currentdict
end
/Times-Roman exch definefont pop
/Helvetica-BoldOblique findfont
dup length dict begin
  {1 index /FID ne {def} {pop pop} ifelse} forall
  /Encoding WinAnsiEncoding def
  currentdict
end
/Helvetica-BoldOblique exch definefont pop
/Helvetica-Bold findfont
dup length dict begin
  {1 index /FID ne {def} {pop pop} ifelse} forall
  /Encoding WinAnsiEncoding def
  currentdict
end
/Helvetica-Bold exch definefont pop
/Helvetica-Oblique findfont
dup length dict begin
  {1 index /FID ne {def} {pop pop} ifelse} forall
  /Encoding WinAnsiEncoding def
  currentdict
end
/Helvetica-Oblique exch definefont pop
/Times-BoldItalic findfont
dup length dict begin
  {1 index /FID ne {def} {pop pop} ifelse} forall
  /Encoding WinAnsiEncoding def
  currentdict
end
/Times-BoldItalic exch definefont pop
/Courier findfont
dup length dict begin
  {1 index /FID ne {def} {pop pop} ifelse} forall
  /Encoding WinAnsiEncoding def
  currentdict
end
/Courier exch definefont pop
/Times-Italic findfont
dup length dict begin
  {1 index /FID ne {def} {pop pop} ifelse} forall
  /Encoding WinAnsiEncoding def
  currentdict
end
/Times-Italic exch definefont pop
/Times-Bold findfont
dup length dict begin
  {1 index /FID ne {def} {pop pop} ifelse} forall
  /Encoding WinAnsiEncoding def
  currentdict
end
/Times-Bold exch definefont pop
%FOPEndFontReencode
%%EndProlog
%%Page: 1 1
%%PageBoundingBox: 0 0 420 315
%%BeginPageSetup
[1 0 0 -1 0 315] CT
%%EndPageSetup
GS
[0.75 0 0 0.75 0 0] CT
1 GC
N
0 0 560 420 re
f
GR
GS
[0.75 0 0 0.75 0 0] CT
1 GC
N
0 0 560 420 re
f
GR
GS
[0.75 0 0 0.75 0 0] CT
1 GC
N
73 360 M
507 360 L
507 31 L
73 31 L
cp
f
GR
GS
[0.75 0 0 0.75 0 0] CT
0.149 GC
2 setlinecap
1 LJ
0.667 LW
N
73 360 M
507 360 L
S
GR
GS
[0.75 0 0 0.75 0 0] CT
0.149 GC
2 setlinecap
1 LJ
0.667 LW
N
73 31 M
507 31 L
S
GR
GS
[0.75 0 0 0.75 0 0] CT
0.149 GC
2 setlinecap
1 LJ
0.667 LW
N
137.632 360 M
137.632 355.66 L
S
GR
GS
[0.75 0 0 0.75 0 0] CT
0.149 GC
2 setlinecap
1 LJ
0.667 LW
N
209.445 360 M
209.445 355.66 L
S
GR
GS
[0.75 0 0 0.75 0 0] CT
0.149 GC
2 setlinecap
1 LJ
0.667 LW
N
281.258 360 M
281.258 355.66 L
S
GR
GS
[0.75 0 0 0.75 0 0] CT
0.149 GC
2 setlinecap
1 LJ
0.667 LW
N
353.071 360 M
353.071 355.66 L
S
GR
GS
[0.75 0 0 0.75 0 0] CT
0.149 GC
2 setlinecap
1 LJ
0.667 LW
N
424.885 360 M
424.885 355.66 L
S
GR
GS
[0.75 0 0 0.75 0 0] CT
0.149 GC
2 setlinecap
1 LJ
0.667 LW
N
496.698 360 M
496.698 355.66 L
S
GR
GS
[0.75 0 0 0.75 0 0] CT
0.149 GC
2 setlinecap
1 LJ
0.667 LW
N
137.632 31 M
137.632 35.34 L
S
GR
GS
[0.75 0 0 0.75 0 0] CT
0.149 GC
2 setlinecap
1 LJ
0.667 LW
N
209.445 31 M
209.445 35.34 L
S
GR
GS
[0.75 0 0 0.75 0 0] CT
0.149 GC
2 setlinecap
1 LJ
0.667 LW
N
281.258 31 M
281.258 35.34 L
S
GR
GS
[0.75 0 0 0.75 0 0] CT
0.149 GC
2 setlinecap
1 LJ
0.667 LW
N
353.071 31 M
353.071 35.34 L
S
GR
GS
[0.75 0 0 0.75 0 0] CT
0.149 GC
2 setlinecap
1 LJ
0.667 LW
N
424.885 31 M
424.885 35.34 L
S
GR
GS
[0.75 0 0 0.75 0 0] CT
0.149 GC
2 setlinecap
1 LJ
0.667 LW
N
496.698 31 M
496.698 35.34 L
S
GR
GS
[0.75 0 0 0.75 103.2239 274.8] CT
0.149 GC
/Helvetica 18.667 F
GS
[1 0 0 1 0 0] CT
-5.5 20 moveto 
1 -1 scale
(1) t 
GR
GR
GS
[0.75 0 0 0.75 157.08378 274.8] CT
0.149 GC
/Helvetica 18.667 F
GS
[1 0 0 1 0 0] CT
-5.5 20 moveto 
1 -1 scale
(2) t 
GR
GR
GS
[0.75 0 0 0.75 210.94368 274.8] CT
0.149 GC
/Helvetica 18.667 F
GS
[1 0 0 1 0 0] CT
-5.5 20 moveto 
1 -1 scale
(3) t 
GR
GR
GS
[0.75 0 0 0.75 264.80356 274.8] CT
0.149 GC
/Helvetica 18.667 F
GS
[1 0 0 1 0 0] CT
-5.5 20 moveto 
1 -1 scale
(4) t 
GR
GR
GS
[0.75 0 0 0.75 318.66344 274.8] CT
0.149 GC
/Helvetica 18.667 F
GS
[1 0 0 1 0 0] CT
-5.5 20 moveto 
1 -1 scale
(5) t 
GR
GR
GS
[0.75 0 0 0.75 372.52334 274.8] CT
0.149 GC
/Helvetica 18.667 F
GS
[1 0 0 1 0 0] CT
-5.5 20 moveto 
1 -1 scale
(6) t 
GR
GR
GS
[0.75 0 0 0.75 217.50016 294.75] CT
0.149 GC
/Helvetica 20.533 F
GS
[1 0 0 1 0 0] CT
-166 22 moveto 
1 -1 scale
(log2 - Ratio of Function Evaluations) t 
GR
GR
GS
[0.75 0 0 0.75 0 0] CT
0.149 GC
2 setlinecap
1 LJ
0.667 LW
N
73 360 M
73 31 L
S
GR
GS
[0.75 0 0 0.75 0 0] CT
0.149 GC
2 setlinecap
1 LJ
0.667 LW
N
507 360 M
507 31 L
S
GR
GS
[0.75 0 0 0.75 0 0] CT
0.149 GC
2 setlinecap
1 LJ
0.667 LW
N
73 360 M
77.34 360 L
S
GR
GS
[0.75 0 0 0.75 0 0] CT
0.149 GC
2 setlinecap
1 LJ
0.667 LW
N
73 294.2 M
77.34 294.2 L
S
GR
GS
[0.75 0 0 0.75 0 0] CT
0.149 GC
2 setlinecap
1 LJ
0.667 LW
N
73 228.4 M
77.34 228.4 L
S
GR
GS
[0.75 0 0 0.75 0 0] CT
0.149 GC
2 setlinecap
1 LJ
0.667 LW
N
73 162.6 M
77.34 162.6 L
S
GR
GS
[0.75 0 0 0.75 0 0] CT
0.149 GC
2 setlinecap
1 LJ
0.667 LW
N
73 96.8 M
77.34 96.8 L
S
GR
GS
[0.75 0 0 0.75 0 0] CT
0.149 GC
2 setlinecap
1 LJ
0.667 LW
N
73 31 M
77.34 31 L
S
GR
GS
[0.75 0 0 0.75 0 0] CT
0.149 GC
2 setlinecap
1 LJ
0.667 LW
N
507 360 M
502.66 360 L
S
GR
GS
[0.75 0 0 0.75 0 0] CT
0.149 GC
2 setlinecap
1 LJ
0.667 LW
N
507 294.2 M
502.66 294.2 L
S
GR
GS
[0.75 0 0 0.75 0 0] CT
0.149 GC
2 setlinecap
1 LJ
0.667 LW
N
507 228.4 M
502.66 228.4 L
S
GR
GS
[0.75 0 0 0.75 0 0] CT
0.149 GC
2 setlinecap
1 LJ
0.667 LW
N
507 162.6 M
502.66 162.6 L
S
GR
GS
[0.75 0 0 0.75 0 0] CT
0.149 GC
2 setlinecap
1 LJ
0.667 LW
N
507 96.8 M
502.66 96.8 L
S
GR
GS
[0.75 0 0 0.75 0 0] CT
0.149 GC
2 setlinecap
1 LJ
0.667 LW
N
507 31 M
502.66 31 L
S
GR
GS
[0.75 0 0 0.75 49.95 270] CT
0.149 GC
/Helvetica 18.667 F
GS
[1 0 0 1 0 0] CT
-11 7.5 moveto 
1 -1 scale
(0) t 
GR
GR
GS
[0.75 0 0 0.75 49.95 220.65001] CT
0.149 GC
/Helvetica 18.667 F
GS
[1 0 0 1 0 0] CT
-22 7.5 moveto 
1 -1 scale
(20) t 
GR
GR
GS
[0.75 0 0 0.75 49.95 171.3] CT
0.149 GC
/Helvetica 18.667 F
GS
[1 0 0 1 0 0] CT
-22 7.5 moveto 
1 -1 scale
(40) t 
GR
GR
GS
[0.75 0 0 0.75 49.95 121.95] CT
0.149 GC
/Helvetica 18.667 F
GS
[1 0 0 1 0 0] CT
-22 7.5 moveto 
1 -1 scale
(60) t 
GR
GR
GS
[0.75 0 0 0.75 49.95 72.6] CT
0.149 GC
/Helvetica 18.667 F
GS
[1 0 0 1 0 0] CT
-22 7.5 moveto 
1 -1 scale
(80) t 
GR
GR
GS
[0.75 0 0 0.75 49.95 23.25] CT
0.149 GC
/Helvetica 18.667 F
GS
[1 0 0 1 0 0] CT
-32 7.5 moveto 
1 -1 scale
(100) t 
GR
GR
GS
[0 -0.75 0.75 0 22.95 146.62489] CT
0.149 GC
/Helvetica 20.533 F
GS
[1 0 0 1 0 0] CT
-57 -5 moveto 
1 -1 scale
(% Problems) t 
GR
GR
GS
[0.75 0 0 0.75 0 0] CT
0 0 1 RC
1 LJ
0.667 LW
N
72.957 75.61 M
73.324 75.61 L
73.324 70.034 L
76.735 70.034 L
76.735 64.458 L
81.638 64.458 L
81.638 58.881 L
96.781 58.881 L
96.781 53.305 L
121.661 53.305 L
121.661 47.729 L
188.039 47.729 L
188.039 42.153 L
507.043 42.153 L
S
GR
GS
[0.75 0 0 0.75 0 0] CT
1 0 0 RC
1 LJ
0.667 LW
N
72.957 337.695 M
76.364 337.695 L
76.364 332.119 L
76.975 332.119 L
76.975 326.542 L
79.653 326.542 L
79.653 320.966 L
80.764 320.966 L
80.764 315.39 L
81.789 315.39 L
81.789 309.814 L
81.789 309.814 L
81.789 304.237 L
84.708 304.237 L
84.708 298.661 L
86.054 298.661 L
86.054 293.085 L
91.856 293.085 L
91.856 287.508 L
92.335 287.508 L
92.335 281.932 L
94.583 281.932 L
94.583 276.356 L
95.624 276.356 L
95.624 270.78 L
107.827 270.78 L
107.827 265.203 L
111.595 265.203 L
111.595 259.627 L
118.743 259.627 L
118.743 254.051 L
122.653 254.051 L
122.653 248.475 L
123.797 248.475 L
123.797 242.898 L
125.429 242.898 L
125.429 237.322 L
126.716 237.322 L
126.716 231.746 L
128.617 231.746 L
128.617 226.169 L
130.113 226.169 L
130.113 220.593 L
137.632 220.593 L
137.632 215.017 L
141.861 215.017 L
141.861 209.441 L
144.78 209.441 L
144.78 203.864 L
145.229 203.864 L
145.229 198.288 L
148.548 198.288 L
148.548 192.712 L
169.271 192.712 L
169.271 187.136 L
171.666 187.136 L
171.666 181.559 L
184.227 181.559 L
184.227 175.983 L
187.206 175.983 L
187.206 170.407 L
191.493 170.407 L
191.493 164.831 L
191.693 164.831 L
191.693 159.254 L
198.529 159.254 L
198.529 153.678 L
199.246 153.678 L
199.246 148.102 L
213.213 148.102 L
213.213 142.525 L
214.5 142.525 L
214.5 136.949 L
221.648 136.949 L
221.648 131.373 L
281.258 131.373 L
281.258 125.797 L
442.689 125.797 L
442.689 120.22 L
445.38 120.22 L
445.38 114.644 L
453.058 114.644 L
453.058 109.068 L
507.043 109.068 L
S
GR
GS
[0.75 0 0 0.75 0 0] CT
0 1 0 RC
1 LJ
0.667 LW
N
72.957 287.508 M
75.693 287.508 L
75.693 281.932 L
77.271 281.932 L
77.271 276.356 L
79.923 276.356 L
79.923 270.78 L
81.789 270.78 L
81.789 265.203 L
82.656 265.203 L
82.656 259.627 L
91.856 259.627 L
91.856 254.051 L
92.705 254.051 L
92.705 248.475 L
99.259 248.475 L
99.259 242.898 L
100.717 242.898 L
100.717 237.322 L
103.917 237.322 L
103.917 231.746 L
105.89 231.746 L
105.89 226.169 L
106.169 226.169 L
106.169 220.593 L
107.827 220.593 L
107.827 215.017 L
109.147 215.017 L
109.147 209.441 L
116.119 209.441 L
116.119 203.864 L
119.313 203.864 L
119.313 198.288 L
126.716 198.288 L
126.716 192.712 L
128.993 192.712 L
128.993 187.136 L
129.555 187.136 L
129.555 181.559 L
131.71 181.559 L
131.71 175.983 L
132.318 175.983 L
132.318 170.407 L
136.555 170.407 L
136.555 164.831 L
137.632 164.831 L
137.632 159.254 L
137.632 159.254 L
137.632 153.678 L
146.014 153.678 L
146.014 148.102 L
152.112 148.102 L
152.112 142.525 L
157.747 142.525 L
157.747 136.949 L
164.814 136.949 L
164.814 131.373 L
166.253 131.373 L
166.253 125.797 L
173.162 125.797 L
173.162 120.22 L
174.585 120.22 L
174.585 114.644 L
175.286 114.644 L
175.286 109.068 L
183.037 109.068 L
183.037 103.492 L
207.508 103.492 L
207.508 97.915 L
213.674 97.915 L
213.674 92.339 L
281.258 92.339 L
281.258 86.763 L
329.773 86.763 L
329.773 81.186 L
442.689 81.186 L
442.689 75.61 L
445.38 75.61 L
445.38 70.034 L
453.058 70.034 L
453.058 64.458 L
507.043 64.458 L
S
GR
GS
[0.75 0 0 0.75 0 0] CT
1 LJ
0.667 LW
N
72.957 343.271 M
86.609 343.271 L
86.609 337.695 L
102.772 337.695 L
102.772 332.119 L
103.917 332.119 L
103.917 326.542 L
113.749 326.542 L
113.749 320.966 L
115.739 320.966 L
115.739 315.39 L
121.515 315.39 L
121.515 309.814 L
124.5 309.814 L
124.5 304.237 L
125.429 304.237 L
125.429 298.661 L
126.235 298.661 L
126.235 293.085 L
126.716 293.085 L
126.716 287.508 L
128.617 287.508 L
128.617 281.932 L
129.954 281.932 L
129.954 276.356 L
137.632 276.356 L
137.632 270.78 L
137.632 270.78 L
137.632 265.203 L
144.78 265.203 L
144.78 259.627 L
148.945 259.627 L
148.945 254.051 L
152.112 254.051 L
152.112 248.475 L
153.603 248.475 L
153.603 242.898 L
176.721 242.898 L
176.721 237.322 L
179.64 237.322 L
179.64 231.746 L
184.365 231.746 L
184.365 226.169 L
188.655 226.169 L
188.655 220.593 L
193.474 220.593 L
193.474 215.017 L
195.611 215.017 L
195.611 209.441 L
196.571 209.441 L
196.571 203.864 L
196.947 203.864 L
196.947 198.288 L
217.738 198.288 L
217.738 192.712 L
217.841 192.712 L
217.841 187.136 L
232.564 187.136 L
232.564 181.559 L
250.166 181.559 L
250.166 175.983 L
262.369 175.983 L
262.369 170.407 L
300.435 170.407 L
300.435 164.831 L
321.744 164.831 L
321.744 159.254 L
323.266 159.254 L
323.266 153.678 L
331.179 153.678 L
331.179 148.102 L
457.878 148.102 L
457.878 142.525 L
460.206 142.525 L
460.206 136.949 L
466.893 136.949 L
466.893 131.373 L
507.043 131.373 L
S
GR
GS
[0.75 0 0 0.75 0 0] CT
1 GC
N
388 347 M
388 247 L
494 247 L
494 347 L
cp
f
GR
GS
[0.75 0 0 0.75 318.75 195.049] CT
/Helvetica 16.8 F
GS
[1 0 0 1 0 0] CT
0 7 moveto 
1 -1 scale
(Hes) t 
GR
GR
GS
[0.75 0 0 0.75 0 0] CT
0 0 1 RC
1 LJ
0.667 LW
N
392 260.065 M
422 260.065 L
S
GR
GS
[0.75 0 0 0.75 318.75 219.75] CT
/Helvetica 16 F
GS
[1 0 0 1 0 0] CT
0 0 moveto 
1 -1 scale
(SBFGS) t 
GR
GR
GS
[0.75 0 0 0.75 360 213.75] CT
/Helvetica 12 F
GS
[1 0 0 1 0 0] CT
0 0 moveto 
1 -1 scale
(M) t 
GR
GR
GS
[0.75 0 0 0.75 0 0] CT
1 0 0 RC
1 LJ
0.667 LW
N
392 284.186 M
422 284.186 L
S
GR
GS
[0.75 0 0 0.75 318.75 239.25] CT
/Helvetica 16 F
GS
[1 0 0 1 0 0] CT
0 0 moveto 
1 -1 scale
(SBFGS) t 
GR
GR
GS
[0.75 0 0 0.75 360 233.25] CT
/Helvetica 12 F
GS
[1 0 0 1 0 0] CT
0 0 moveto 
1 -1 scale
(P) t 
GR
GR
GS
[0.75 0 0 0.75 0 0] CT
0 1 0 RC
1 LJ
0.667 LW
N
392 309.814 M
422 309.814 L
S
GR
GS
[0.75 0 0 0.75 318.75 250.451] CT
/Helvetica 16.8 F
GS
[1 0 0 1 0 0] CT
0 7 moveto 
1 -1 scale
(BFGS) t 
GR
GR
GS
[0.75 0 0 0.75 0 0] CT
1 LJ
0.667 LW
N
392 333.935 M
422 333.935 L
S
GR
GS
[0.75 0 0 0.75 0 0] CT
0.149 GC
10.0 ML
0.667 LW
N
388 347 M
388 247 L
494 247 L
494 347 L
cp
S
GR
%%Trailer
%%Pages: 1
%%EOF
